<svg width="56" height="56" viewBox="0 0 56 56" fill="none" xmlns="http://www.w3.org/2000/svg">
<mask id="mask0_4_4689" style="mask-type:alpha" maskUnits="userSpaceOnUse" x="0" y="0" width="56" height="56">
<rect width="56" height="56" fill="#C4C4C4"/>
</mask>
<g mask="url(#mask0_4_4689)">
<path fill-rule="evenodd" clip-rule="evenodd" d="M47.8114 72C54.3239 53.588 54.9556 45.2112 47.9461 30.2579C43.8677 21.5542 43.7098 21.3694 45.8605 12.1066C46.5386 9.18792 46.9985 6.18401 47.2633 3.11851C51.3556 1.27067 51.9409 -3.35364 49.832 -8.30015C49.0284 -10.2048 48.0483 -12.1285 47.4026 -14H9.04329C8.39762 -12.1285 7.4175 -10.2048 6.60925 -8.30015C4.55147 -3.46736 5.06243 1.05746 8.90394 2.98584C9.21516 6.09873 9.71683 9.15002 10.409 12.1066C12.5596 21.3694 12.4064 21.5542 8.32794 30.2579C1.31847 45.2112 1.70401 53.588 8.21646 72H47.8114Z" fill="#DEB192"/>
<path fill-rule="evenodd" clip-rule="evenodd" d="M32.4036 -11.1098C32.5847 -12.0432 33.026 -13.0287 33.6206 -14H45.0476C45.2891 -11.8963 45.8605 -9.81158 46.6687 -7.97322C47.7278 -5.5663 48.0065 -4.02644 47.7835 -2.82298C47.3608 -0.529777 44.5645 0.143023 41.3361 -0.250233C37.0115 -0.776155 31.3352 -5.6279 32.4036 -11.1098Z" fill="#E6BA9C"/>
<path fill-rule="evenodd" clip-rule="evenodd" d="M47.7417 -3.53366C47.6302 -4.04537 47.4351 -4.55708 47.175 -5.03562C44.6295 -9.63151 39.6546 -6.81712 41.8657 -2.50551C43.6958 1.04801 48.6568 0.716352 47.7417 -3.53366Z" fill="#DEB192"/>
<path fill-rule="evenodd" clip-rule="evenodd" d="M23.7915 -11.1098C23.6104 -12.0432 23.1691 -13.0287 22.5745 -14H11.5191C11.4866 -11.7636 11.0546 -9.56994 9.98159 -7.85477C6.01931 -1.52476 9.93514 0.342021 14.8543 -0.254971C19.1836 -0.776155 24.8645 -5.6279 23.7915 -11.1098Z" fill="#E6BA9C"/>
<path fill-rule="evenodd" clip-rule="evenodd" d="M13.3493 3.91431C13.9903 3.39786 14.8079 3.07568 15.7044 2.84825C19.8989 1.69217 22.8114 -1.17907 24.7856 -3.48649C28.1068 -7.36694 28.864 -6.33405 32.1806 -3.20695C34.754 -0.781078 38.0056 2.1186 40.8345 2.84825C41.6799 3.0662 42.4556 3.3647 43.0827 3.83376C44.165 3.72005 45.0429 3.47367 46.1159 3.0662C45.8465 6.13645 45.3867 9.14036 44.7038 12.0542C42.5392 21.3171 42.6925 21.5019 46.7988 30.2056C49.8227 36.6162 49.3118 40.5488 44.9082 45.9264C31.2655 62.5806 23.1737 58.2311 12.5689 47.3241C7.12487 41.7285 5.65701 37.8955 9.26162 30.253C13.3679 21.5493 13.5258 21.3645 11.3566 12.1016C10.6737 9.183 10.2139 6.17909 9.94445 3.11358C11.1336 3.56843 12.0859 3.81955 13.3493 3.91431Z" fill="#EBC0A4"/>
<path fill-rule="evenodd" clip-rule="evenodd" d="M15.3421 7.87559C15.1841 7.19805 14.9844 6.48735 15.291 5.81455C15.6301 5.07541 16.3779 4.77692 17.1119 4.5637C20.238 3.654 22.8625 2.09993 25.3802 0.0673137C25.5149 -0.041661 25.6496 -0.155374 25.7843 -0.269087C27.0942 -1.33041 29.4307 -0.889769 30.6152 0.0673137C33.1282 2.09993 35.7573 3.654 38.8835 4.5637C39.6128 4.77692 40.3653 5.07541 40.7044 5.81455C41.011 6.48735 40.8112 7.19805 40.6533 7.87559C40.3606 9.11695 40.1423 10.3725 39.989 11.6376C39.6407 14.4851 39.6128 16.9158 39.7614 20.0334C39.8497 21.8623 39.924 22.7435 40.0866 24.5487C40.1098 24.7856 40.1284 25.0225 40.1516 25.2594C40.2538 26.3634 40.3421 27.4721 40.3606 28.5855C40.3792 29.8506 40.3374 32.1248 40.2259 33.3899C40.0773 35.034 39.8079 36.6591 39.427 38.2653C38.0706 43.9367 35.2185 49.3334 32.4779 54.4457C30.9218 57.3501 25.0782 57.3454 23.5268 54.4457C20.7908 49.3334 17.934 43.9367 16.5777 38.2653C16.1921 36.6591 15.9274 35.034 15.7787 33.3899C15.6626 32.1296 15.6254 29.8506 15.644 28.5855C15.6626 27.4768 15.7508 26.3681 15.853 25.2594C15.8763 25.0225 15.8948 24.7856 15.9181 24.5487C16.0806 22.7435 16.155 21.867 16.2432 20.0334C16.4523 15.4896 16.3779 12.3009 15.3421 7.87559Z" fill="#FCECE2"/>
<path fill-rule="evenodd" clip-rule="evenodd" d="M31.168 0.503314L24.5533 0.707049C24.6973 0.598074 24.846 0.484361 24.99 0.370648L30.7731 0.190603C30.9032 0.29484 31.0379 0.399077 31.168 0.503314ZM30.5362 0.00108153L25.3244 0.105319L25.3801 0.0626765C25.4963 -0.0320841 25.6124 -0.131583 25.7285 -0.226344L30.0438 -0.311628C30.2204 -0.216868 30.3876 -0.112631 30.5362 0.00108153ZM28.8408 -0.757003L26.6111 -0.71436C27.2939 -0.941786 28.0929 -0.93231 28.8408 -0.757003ZM32.5661 1.52199L22.9508 1.83944C23.1226 1.72573 23.2898 1.61201 23.4617 1.4983L32.1248 1.20928C32.2688 1.31825 32.4175 1.42249 32.5661 1.52199ZM32.0923 1.19033C31.9483 1.08609 31.809 0.986592 31.665 0.877617L24.0052 1.11452C23.8473 1.22823 23.6847 1.34194 23.5267 1.45092L32.0923 1.19033ZM28.4366 10.2115L20.8512 10.4484L25.7146 10.6853L35.2464 10.3916L34.6797 10.3395L31.9298 10.3679V10.2826L28.4366 10.2115ZM19.9128 10.4769L16.3826 10.5858L16.3686 10.2637L22.031 10.0883L17.1165 9.98885V9.93199L15.7741 9.96042C15.7555 9.85145 15.7369 9.74721 15.7137 9.63824L34.1687 9.26867L34.5124 9.24024L24.6694 9.04598V8.98913L15.6208 9.16917C15.5975 9.0602 15.579 8.95596 15.5557 8.84699L21.8406 8.71906L15.5093 8.62903C15.4861 8.52006 15.4628 8.41109 15.4396 8.30211L16.7309 8.32106L16.7263 8.07469L33.2211 7.82357L17.9247 7.60562L17.9294 7.28343L24.2839 7.37346L24.2793 7.12708L36.8907 6.93756L35.6458 6.78594L35.7062 6.46376L39.2597 6.89965L40.8484 6.87597C40.8298 7.05601 40.7973 7.23605 40.7601 7.41136L39.2319 7.22658L32.9796 7.32134L34.545 7.52034L40.709 7.61036C40.6904 7.70038 40.6672 7.7904 40.644 7.87569C40.6301 7.92781 40.6208 7.98466 40.6068 8.03678L38.8138 8.06521L40.5511 8.2879C40.435 8.80908 40.3328 9.33027 40.2445 9.85145L37.3041 9.94147L38.1403 9.98411L40.2213 9.96516C40.1702 10.2731 40.1191 10.5858 40.0773 10.8938L33.9272 11.0976L38.4376 11.3202L40.0262 11.2681C40.0076 11.3913 39.9937 11.5145 39.9797 11.6424L39.9658 11.7419L36.036 11.723L33.8807 11.794L35.5994 11.9314L39.9612 11.794C39.9472 11.903 39.9379 12.012 39.924 12.121L38.4933 12.1636L39.9054 12.2773C39.8868 12.4621 39.8683 12.6469 39.8497 12.8317L30.2807 13.1302L31.8461 13.2865L39.8311 13.0449C39.8218 13.1539 39.8125 13.2628 39.8032 13.3718L34.3313 13.5376L37.3599 13.8409L39.7707 13.7698C39.7568 13.983 39.7428 14.1962 39.7289 14.4047L37.3413 14.1631L16.2943 14.798C16.2897 14.689 16.285 14.58 16.2804 14.4758L34.8562 13.9167L31.8276 13.6134L17.3209 14.0493L17.3069 13.7272L29.4539 13.3623L29.4818 13.1586L16.2339 13.5755C16.2246 13.4666 16.22 13.3576 16.2107 13.2534L39.0321 12.5332L35.5901 12.2536L23.536 12.6327L23.5221 12.3105L32.6962 12.0215L31.6557 11.9362L31.665 11.8651L16.1317 12.3816C16.1224 12.2726 16.1085 12.1683 16.0946 12.0594L29.2356 11.6235V11.3676L33.2675 11.3866L30.0067 11.2255L16.0481 11.6898C16.0342 11.5808 16.0202 11.4766 16.0063 11.3676L26.0862 11.036L25.7146 11.017L15.997 11.3155C15.9831 11.2065 15.9645 11.1023 15.9506 10.9933L21.678 10.818L19.8989 10.728L19.9128 10.4769ZM40.8205 6.20316C40.7973 6.07524 40.7555 5.95205 40.7044 5.82886L37.908 5.49246L40.4628 5.4356C40.3653 5.31715 40.2492 5.21291 40.1284 5.11815L35.6366 5.22239L33.3976 4.95232L33.3419 5.27451L18.8352 5.60143L18.8445 5.92362L35.6087 5.54458L38.7766 5.92362L15.133 6.45902C15.1284 6.56799 15.1284 6.67697 15.1377 6.7812L40.8205 6.20316ZM38.6745 4.50221L15.7694 5.18923C15.932 5.05182 16.1178 4.94285 16.3129 4.84809L37.7687 4.20371C38.0659 4.30795 38.3679 4.40745 38.6745 4.50221ZM37.5689 4.13265C37.0719 3.9526 36.5842 3.74886 36.1057 3.53565L35.1535 3.56408L33.5927 3.40773L35.6923 3.34139C35.4879 3.24189 35.2835 3.1424 35.0791 3.03816L19.9314 3.51196C19.7178 3.61146 19.4994 3.70622 19.2811 3.79625L19.2858 3.85784L32.7891 3.43142L32.7566 3.63515L20.6096 3.99998L20.6235 4.32217L35.1302 3.88627L37.5689 4.13265ZM34.4056 2.66859L26.8387 2.90549L26.8248 2.58331L33.8761 2.36062C34.0526 2.4696 34.2291 2.56909 34.4056 2.66859ZM33.5834 2.18531C33.3001 2.01001 33.0214 1.82996 32.7426 1.64044H32.5336V1.89629L22.3237 2.23269C22.1332 2.35114 21.9381 2.46486 21.743 2.57857L33.5834 2.18531ZM39.9937 23.5444C39.9844 23.4164 39.9704 23.2932 39.9612 23.1748L38.6605 23.2032L38.6559 23.0042L33.9643 23.099L32.2781 22.8952L39.9286 22.7199C39.9008 22.3883 39.8775 22.0661 39.8543 21.725L38.3772 21.8529L37.5225 21.7676L39.8497 21.6965C39.8404 21.5591 39.8311 21.417 39.8218 21.2701L36.1429 21.0853L39.8079 20.9763C39.7986 20.8295 39.7893 20.6778 39.7846 20.5168L39.1065 20.4552L39.6035 20.4409L39.7846 20.4552C39.7754 20.3178 39.7707 20.1756 39.7614 20.0287L39.7568 19.9008L38.2053 19.8724L37.044 19.8155L39.7475 19.7302C39.7335 19.4175 39.7196 19.1096 39.7103 18.8063L34.2477 18.6974L34.1641 18.6926L34.6518 18.6784L39.701 18.7495C39.6639 17.6266 39.6546 16.5842 39.6871 15.556L37.7733 15.5987L34.6053 15.2196L39.7057 15.1059C39.7103 14.9969 39.715 14.888 39.7196 14.7837L32.3292 14.9496L30.0903 14.6795L30.0345 14.997L16.3222 15.3097C16.3268 15.4186 16.3268 15.5276 16.3268 15.6366L32.306 15.2718L35.474 15.6508L16.3315 16.0867C16.3315 16.1957 16.3315 16.2999 16.3315 16.4089L37.7501 15.9209L38.5398 16.0156L16.3315 16.461C16.3315 16.57 16.3315 16.679 16.3315 16.7832L32.3478 16.461L32.3385 16.5036L33.5834 16.6553L20.9719 16.8448L20.9766 17.0912L16.3315 17.0343C16.3315 17.2143 16.3268 17.3991 16.3222 17.5839L22.8532 17.4512L27.7027 17.5223L23.5453 17.6502L16.3222 17.7592C16.3175 17.9724 16.3129 18.1951 16.3036 18.4131L20.1683 18.4699L16.2989 18.5884C16.2943 18.6974 16.2897 18.8063 16.2897 18.9153L21.3714 18.7589V18.7732L21.7802 18.7826L16.285 18.9627C16.2804 19.0717 16.2757 19.1806 16.2711 19.2849L27.8978 18.9011L34.2105 19.0243L34.4613 19.0527L33.7088 19.0764L26.9037 19.048V19.3038L26.7597 19.3086L24.1724 19.1806L24.1585 19.3938L20.3495 19.5218L16.2664 19.4412C16.2571 19.6213 16.2525 19.8013 16.2432 19.9814L20.3588 19.844L23.7404 19.9103L21.1995 19.9908L21.2135 20.313L30.0578 20.0335L31.3212 20.0572L33.8946 20.2988L25.4916 20.5641L16.6195 20.1235L16.5962 20.4457L21.4829 20.6873L16.1921 20.8579C16.1875 20.9716 16.1782 21.0758 16.1735 21.1848L25.4777 20.8911L27.136 20.9716L27.1267 21.0427L16.1642 21.3743C16.1596 21.4833 16.1503 21.5923 16.1457 21.7013L29.505 21.2985L32.5336 21.6018L16.1131 22.0945C16.1039 22.2035 16.0992 22.3125 16.0899 22.4214L35.0188 21.8481L36.6306 22.0092L32.9935 22.3219L28.2694 22.4167L27.7631 22.3551L27.7492 22.4262L16.0713 22.6583C16.0574 22.8573 16.0388 23.0563 16.0202 23.2648L24.2235 23.08L20.9998 23.3596L16.0063 23.4591C15.9831 23.7149 15.9599 23.9897 15.932 24.2835L18.7562 24.1982L18.7609 24.4635L24.9342 24.4019L22.3887 24.4825L18.6401 24.5393V24.5962L15.8948 24.6815C15.8762 24.8757 15.8577 25.07 15.8391 25.2643L15.8298 25.3543L21.8731 25.1553L27.5773 25.2358L15.8251 25.4159C15.8019 25.6528 15.7833 25.8897 15.7648 26.1218L18.3056 26.1597L15.7555 26.2403C15.7462 26.3493 15.7369 26.4582 15.7276 26.5672L19.1743 26.4582L25.1525 26.5767L25.8586 26.6336L15.6997 26.951C15.6811 27.2353 15.6672 27.5196 15.6533 27.8038L18.6587 27.7138L21.6873 28.0171L19.6341 28.0787L15.644 27.8797C15.6347 28.0929 15.6301 28.3061 15.6254 28.524L19.6295 28.4056L28.353 28.8367L19.151 29.0452L16.9121 28.7751L16.8564 29.0973L15.6208 29.1258C15.6208 29.23 15.6208 29.339 15.6208 29.4479L19.1278 29.3674L22.2958 29.7464L15.6347 29.8981C15.6347 30.0023 15.6347 30.1113 15.6393 30.2202L24.5858 30.0165L29.6118 30.6182L22.7835 30.7225L19.23 30.2866L19.1696 30.6088L20.4145 30.7604L15.6486 30.8314C15.6533 31.1015 15.6626 31.3716 15.6719 31.6322L16.7449 31.6464L15.6719 31.6606C15.6765 31.7696 15.6811 31.8786 15.6858 31.9828L20.0476 31.9165L24.4929 32.485L17.7575 32.3903L16.3408 32.2197L16.3129 32.3713L15.7044 32.3618C15.709 32.4708 15.7137 32.5798 15.723 32.6888L17.7296 32.7172L17.8551 32.7314L15.7276 32.6888C15.7322 32.8025 15.7415 32.9114 15.7462 33.0109L21.0463 33.1152L23.0762 33.3616L15.788 33.5084C15.8251 33.8827 15.867 34.2523 15.9134 34.6266L21.9056 34.5082L22.0728 34.5224L15.9227 34.7119C15.9552 34.9488 15.9877 35.181 16.0202 35.4179L16.3965 35.4131L16.0202 35.4226C16.0388 35.5316 16.0528 35.6358 16.0713 35.7448L17.07 35.7164L16.0713 35.7495C16.0899 35.8585 16.1085 35.9627 16.1271 36.0717L26.9781 35.7116L31.4931 35.9343L16.1921 36.4413C16.2153 36.5739 16.2386 36.7019 16.2664 36.8345L19.8246 36.8487L16.2897 36.9577C16.3315 37.1615 16.3733 37.3605 16.4151 37.5642L17.3255 37.6353L16.4383 37.6637C16.4615 37.7727 16.4848 37.8769 16.5126 37.9859L20.2241 37.8674L22.2029 38.0285L16.5637 38.1991L16.5777 38.2607C16.5962 38.346 16.6195 38.436 16.6427 38.5213L25.134 38.2654L28.706 38.5544L16.7449 38.9145C16.7867 39.0756 16.8285 39.2367 16.8749 39.3931L21.0509 39.81L17.0189 39.9C17.0515 40.009 17.084 40.1133 17.1118 40.2222L23.6847 40.0753L27.3543 40.4449L17.2512 40.6723C17.3069 40.8429 17.358 41.0182 17.4184 41.1888L21.0788 41.6294L17.581 41.6815C17.6182 41.7905 17.6553 41.8947 17.6925 42.0037L23.4803 41.9184L26.8852 42.3259L26.9409 42.0037L25.905 41.8805L38.4283 41.691C38.4654 41.582 38.5026 41.4731 38.5398 41.3641L23.5082 41.5915L18.3521 40.9756L38.8138 40.5112C38.8463 40.4023 38.8788 40.2933 38.9114 40.1843L28.5481 40.4212L28.576 40.2459L26.3277 40.0185L39.0321 39.7295C39.0646 39.6205 39.0925 39.5115 39.125 39.4025L23.694 39.7532L18.1431 39.1988L35.7713 38.6682L35.7573 38.346L30.1925 38.5118L30.2111 38.3507L28.065 38.1801L39.5152 37.8343C39.5385 37.7253 39.5617 37.6163 39.5895 37.5073L25.1386 37.9432L23.1273 37.7821L32.947 37.4742L32.9331 37.152L20.2334 37.55L16.7913 37.2704L28.9151 36.8867L30.3179 36.8914V36.8393L39.7846 36.5408C39.8172 36.3655 39.8497 36.1949 39.8775 36.0196L30.9078 35.5742L32.7659 35.5126L32.9749 35.5316L32.9796 35.5031L39.2458 35.2947L39.2319 34.9867L40.0355 35.0246C40.0494 34.9156 40.0633 34.8114 40.0773 34.7024L35.9524 34.4987L40.0959 34.5792C40.1098 34.4703 40.1237 34.366 40.133 34.257L37.0905 34.1954L37.0858 34.0486L34.1687 34.1386L31.8833 34.0912L27.6841 33.5795L32.4407 33.4847L33.6903 33.6458L33.7274 33.4611L36.3751 33.4089L40.212 33.4847L40.2213 33.3758C40.2259 33.3094 40.2352 33.2384 40.2399 33.1626L37.6665 33.1104V33.0583L36.3798 33.082L31.5396 32.9872L31.5303 32.8972L40.2538 33.0204C40.2631 32.9162 40.2677 32.8072 40.277 32.6982L27.3868 32.5277L22.3469 31.8833L27.7724 31.8027L29.0544 31.8217L34.2523 32.4613L34.3127 32.1391L32.0645 31.8596L40.3095 31.9781C40.3142 31.8691 40.3188 31.7648 40.3235 31.6559L38.7999 31.6322L40.3235 31.6085C40.3281 31.4995 40.3328 31.3905 40.3328 31.2863L28.8082 31.4616L25.1293 31.0115L32.0134 30.9073L35.4182 31.3147L35.474 30.9925L34.4381 30.8693L40.3374 30.7793C40.3421 30.6704 40.3421 30.5614 40.3421 30.4571L32.0319 30.5851L26.8759 29.9691L40.3513 29.6612C40.3513 29.4669 40.3513 29.2774 40.3513 29.1021L37.3413 28.9552L40.3513 28.8889C40.3513 28.7846 40.3513 28.6851 40.3467 28.5904V28.4861L34.6425 27.9555L36.2172 27.9081L40.3374 28.1118C40.3281 27.8797 40.3188 27.6428 40.3049 27.4106L38.0288 27.1358L40.2863 27.0695C40.2677 26.7662 40.2445 26.463 40.2213 26.155L38.2192 26.1266L36.5749 25.9181L37.4528 25.8897L38.8556 25.8944V25.8423L40.1934 25.7997C40.1841 25.6907 40.1748 25.5864 40.1655 25.4775L37.4482 25.5628L33.6949 25.5485L33.1979 25.4869L33.3372 25.4822L38.6048 25.4017L39.8822 25.4206L40.1609 25.4443L40.1423 25.2643L40.1098 24.9231L38.9114 24.961L36.5238 24.6673L40.0773 24.5488C40.0541 24.293 40.0308 24.0513 40.0123 23.8239L38.1496 23.6012L39.9937 23.5444ZM17.7389 42.1648L20.2612 42.4775L38.2425 42.2027C38.2053 42.3117 38.1635 42.4207 38.1263 42.5296L30.2575 42.6481L38.0427 42.7571C38.0009 42.866 37.9638 42.9703 37.922 43.0793L23.5221 42.8755L25.775 43.1503L25.7146 43.4725L20.5167 42.8329L19.2393 42.8139L17.9944 42.8329C17.8969 42.6102 17.8179 42.3875 17.7389 42.1648ZM18.2174 43.4583C18.2685 43.591 18.3196 43.7236 18.3707 43.8563L18.8073 43.861L19.4251 43.9416L18.3985 43.9226C18.4682 44.0979 18.5379 44.2685 18.6076 44.4438L19.6341 44.3538L19.6249 44.2732L22.4351 44.3301L23.2295 44.4296L18.6401 44.5196C18.6912 44.6428 18.7423 44.7707 18.798 44.8939L20.1079 45.055L18.8538 45.0313C18.9095 45.164 18.9699 45.3014 19.0256 45.4341L20.5632 45.5099L19.0814 45.5572C19.1557 45.7326 19.2347 45.9031 19.309 46.0784L23.0947 46.429L20.6421 46.5096L19.9547 46.4764L19.95 46.2395L19.3833 46.2443C19.4762 46.4527 19.5691 46.6612 19.6667 46.8697L20.6375 46.8365L35.9896 47.5946C36.0407 47.4904 36.0871 47.3814 36.1382 47.2772L24.5673 46.7038L27.3404 46.6138L27.3264 46.2916L24.4558 46.3864L24.4743 46.2348L20.2984 45.8463L24.5998 45.7136L36.5842 46.3059C36.6306 46.2016 36.6771 46.0926 36.7235 45.9884L27.4054 45.5288L36.8443 45.7136C36.8907 45.6046 36.9372 45.5004 36.9836 45.3914L23.3363 45.1213L20.735 44.8039L25.7703 44.7044L25.761 44.3964L37.3088 44.6239C37.3552 44.5149 37.3971 44.4106 37.4389 44.3017L22.4723 44.0032L21.7059 43.9037L37.5085 44.1264C37.5503 44.0174 37.5968 43.9132 37.6386 43.8042L18.8445 43.5388L18.2174 43.4583ZM28.4366 9.88935L29.2263 9.86566L27.4472 9.77564L27.4519 9.72352L23.8333 9.79459L28.4366 9.88935ZM33.2675 9.74247L39.571 9.54821L39.1204 9.49136L34.1966 9.59086L33.0678 9.69036L33.0585 9.61455L31.377 9.64771L33.2675 9.74247ZM37.5643 8.97491L37.8755 8.94648L37.2531 8.93701L37.5457 8.97491H37.5643ZM31.2934 8.52954L32.7937 8.50111L32.8123 8.40161L33.5184 8.48689L38.7209 8.38266L36.5191 8.10312L19.3879 8.36371L31.2934 8.52954ZM30.0067 10.8986L29.7512 10.8843L37.8569 10.638H37.8755L30.0067 10.8986ZM26.9409 7.41136L31.7114 7.4777L31.7393 7.33555L26.9409 7.41136ZM34.322 8.90858L34.1966 8.89437L31.9344 8.8612L34.322 8.90858ZM23.5686 17.9724L29.5933 17.8824L29.5979 18.053L34.5728 18.0009L34.7308 18.0198L29.872 18.1714L29.5097 18.1288L29.5004 18.1856L27.359 18.252L18.6772 18.1241L23.5686 17.9724ZM34.9073 17.2996L32.3107 17.2617L37.5829 17.1575L37.973 17.2049L34.9073 17.2996ZM35.7806 16.6079L34.3127 16.4278L38.9439 16.3378L35.7806 16.6079ZM34.6518 18.3515H34.5589L36.4448 18.2946L34.6518 18.3515ZM35.9664 20.1567L36.7003 20.2135L36.5005 20.2183L35.7527 20.1472L35.9664 20.1567ZM38.2285 20.7063L32.0691 20.8911L29.4911 20.7631L36.4866 20.5452L38.2285 20.7063ZM26.4717 19.645L26.7597 19.6355L27.2707 19.6592L26.4717 19.645ZM37.8709 19.4697L33.2722 19.6118L31.5535 19.4744L33.7088 19.4033L37.4621 19.4175L37.8709 19.4697ZM37.0301 21.4644L35.0373 21.526L32.0087 21.2227H32.0691L37.0301 21.4644ZM38.3725 22.1845L38.6373 22.213L37.8987 22.2272L38.3725 22.1845ZM29.3378 22.9663L29.9788 22.9521L31.6185 23.1464L25.9143 23.2601L29.3378 22.9663ZM35.9756 23.6723L38.2378 23.9424L31.2144 24.0134L30.0671 23.8713L30.0392 24.0229L21.7105 24.1082L35.9756 23.6723ZM34.4335 24.7383L36.8164 25.0321L36.5981 25.0368L28.9104 24.9279L28.8547 24.9231L34.4335 24.7383ZM21.8777 24.8284L21.6826 24.8236L22.384 24.7999L22.8068 24.7952L21.8777 24.8284ZM37.5085 26.8183L35.8967 26.8657L35.1024 26.771L37.5085 26.8183ZM38.2332 28.6046L32.8541 28.7278L31.3538 28.652L26.6854 28.1829L32.0041 28.0218L38.2332 28.6046ZM29.3796 27.7802L24.2003 27.9365L21.1717 27.6333L22.045 27.6048L28.9848 27.7423L29.3796 27.7802ZM17.9526 27.2021L21.822 27.0789L21.8127 27.1832L23.1226 27.2495L22.045 27.2827L17.9526 27.2021ZM24.5208 26.9936L28.7571 26.861L30.736 27.0221L27.201 27.1263L24.5208 26.9936ZM31.2701 27.33L33.667 27.259L37.2391 27.548L36.4495 27.5717L35.8735 27.5622L31.2701 27.33ZM33.7367 26.932H33.681L31.6696 26.771L32.2642 26.752L33.7367 26.932ZM28.6875 26.3161L26.3045 26.2687L28.5667 26.3019L28.6875 26.3161ZM33.8296 26.3777L33.0074 26.4061L31.9112 26.3824L31.6185 26.3445L33.8296 26.3777ZM27.1639 25.8755L25.3941 25.9323L21.167 25.8707L22.8718 25.8139L27.1685 25.8328L27.1639 25.8755ZM27.4193 25.8376L28.3623 25.8423L27.6377 25.866L27.4193 25.8376ZM32.4918 26.0318L34.5124 25.9702L35.33 26.0745L32.4918 26.0318ZM39.1018 29.3627L37.0905 29.41L37.1137 29.2632L39.1018 29.3627ZM23.7125 28.2777L24.1817 28.2634L24.9156 28.3392L23.7125 28.2777ZM25.0875 33.281L24.27 33.1815L25.8725 33.2147L25.0875 33.281ZM25.3616 33.6411L28.6503 34.0391L25.0318 33.968L22.398 33.8354L24.4697 33.6553L25.3616 33.6411ZM18.4218 34.1812L19.0396 34.2381L17.3673 34.2713L18.4218 34.1812ZM30.7778 34.5792L39.0368 34.9867L32.7752 35.1952L31.8554 35.1099L31.8508 34.9298L30.1228 34.9488L27.3079 34.6882L30.7778 34.5792ZM24.6834 34.7687L26.9734 34.982L20.1637 35.053L18.3707 34.963L24.6834 34.7687ZM30.1971 35.2805L29.5375 35.3041V35.2805L30.1042 35.2757L30.1971 35.2805ZM21.4364 29.3105L32.2178 29.0689L35.8874 29.4385L24.6091 29.6943L21.4364 29.3105ZM16.508 31.1394L22.7557 31.0447L26.0723 31.4521L18.078 31.3432L16.508 31.1394ZM27.9721 32.9304L21.0788 32.793L20.7861 32.7551L27.3543 32.8498L27.9721 32.9304ZM38.261 36.2707L28.9058 36.5645L23.0111 36.5408L31.6882 36.2518L31.6743 35.9438L38.261 36.2707ZM25.199 44.387V44.3822L25.3709 44.387H25.199ZM20.0894 47.7746L28.576 47.5093L28.5899 47.8315L20.2426 48.0921C20.1916 47.9879 20.1405 47.8789 20.0894 47.7746ZM20.4285 48.4711L21.023 48.4522L21.037 48.7744L20.5817 48.7886C20.5306 48.6843 20.4796 48.5801 20.4285 48.4711ZM20.6979 49.0255C20.749 49.1345 20.8047 49.2387 20.8558 49.3429L31.4188 49.0255L31.4049 48.7033L20.6979 49.0255ZM21.0509 49.7314L23.8519 49.6462L23.8658 49.9683L21.2135 50.0489C21.1577 49.9447 21.102 49.8404 21.0509 49.7314ZM21.613 50.8354L34.5264 50.5417L34.3591 50.8686L21.7802 51.1529C21.7244 51.0486 21.6687 50.9444 21.613 50.8354ZM22.0124 51.603L27.8235 51.4703L27.8328 51.7925L22.1797 51.9204L22.0124 51.603ZM22.607 52.7306L33.4719 52.5648L33.3001 52.8917L22.7742 53.0528L22.607 52.7306ZM23.0437 53.5598L31.7532 53.4271L31.7625 53.7493L23.2202 53.8772L23.0437 53.5598ZM23.2945 54.0241L32.6265 54.1568L32.4732 54.4458C32.4686 54.4553 32.4593 54.4647 32.4547 54.479L23.471 54.351L23.2945 54.0241ZM23.9727 55.0902L31.7811 55.1991L31.7765 55.3318C31.7068 55.3981 31.6325 55.4597 31.5535 55.5213L24.3025 55.4171C24.1864 55.3128 24.0749 55.2039 23.9727 55.0902ZM24.5162 55.5829L31.2841 55.7156C31.1122 55.8293 30.9264 55.9335 30.736 56.0283L25.0411 55.9146C24.8552 55.8198 24.6787 55.7061 24.5162 55.5829Z" fill="#E8CAB7"/>
<path fill-rule="evenodd" clip-rule="evenodd" d="M27.9582 0.602778L24.5533 0.707015C24.6973 0.59804 24.846 0.484327 24.99 0.370614L27.9582 0.280592V0.602778ZM27.9582 0.0531663L25.3198 0.105285L25.3755 0.0626426C25.4916 -0.0321181 25.6078 -0.131617 25.7239 -0.226378L27.9582 -0.26902V0.0531663ZM27.9582 -0.742823L26.6065 -0.714394C27.0292 -0.851797 27.4937 -0.903916 27.9582 -0.880225V-0.742823ZM27.9582 1.67357L22.9461 1.8394C23.118 1.72569 23.2852 1.61198 23.4571 1.49827L27.9582 1.35139V1.67357ZM27.9582 1.31822V0.996034L24.0005 1.11922C23.8426 1.23294 23.68 1.34665 23.5221 1.45562L27.9582 1.31822ZM27.9582 10.2257L20.8512 10.4437L25.7146 10.6853L27.9582 10.6142V11.287L16.0435 11.6803C16.0295 11.5713 16.0156 11.4671 16.0017 11.3581L26.0816 11.0264L25.7099 11.0075L15.9924 11.306C15.9784 11.197 15.9599 11.0928 15.9459 10.9838L21.6733 10.8085L19.8943 10.7185L19.9128 10.4721L16.3826 10.5811L16.3686 10.2589L22.031 10.0836L17.1165 9.98408V9.92722L15.7741 9.95565C15.7555 9.84668 15.7369 9.74244 15.7137 9.63347L27.9582 9.38709V9.7993L27.4472 9.77561L27.4519 9.72349L23.8333 9.79456L27.9582 9.8751V10.2257ZM27.9582 9.10754L24.6694 9.04121V8.98435L15.6208 9.1644C15.5975 9.05543 15.579 8.95119 15.5557 8.84221L21.8406 8.71429L15.5093 8.62426C15.4861 8.51529 15.4628 8.40632 15.4396 8.29734L16.7309 8.31629L16.7263 8.06992L27.9628 7.89935V8.22153L19.3926 8.34946L27.9628 8.47265V9.10754H27.9582ZM27.9582 7.75247L17.9201 7.61033L17.9247 7.28814L24.2793 7.37816L24.2746 7.13178L27.9582 7.07493V7.39711L26.9409 7.41133L27.9582 7.42554V7.75247ZM27.9582 14.452L16.3036 14.8027C16.2989 14.6937 16.2943 14.5847 16.2897 14.4805L27.9582 14.1299V14.452ZM27.9582 13.7319L17.3255 14.054L17.3116 13.7319L27.9628 13.4097V13.7319H27.9582ZM27.9582 13.2059V12.8838L16.2107 13.2533C16.22 13.3623 16.2293 13.4713 16.2339 13.5755L27.9582 13.2059ZM27.9582 12.4952L23.536 12.6326L23.5221 12.3105L27.9628 12.1683V12.4952H27.9582ZM27.9582 11.9883V11.6613L16.0899 12.0593C16.1039 12.1683 16.1131 12.2773 16.1271 12.3815L27.9582 11.9883ZM27.9582 6.49215L15.1377 6.78117C15.1284 6.6722 15.1284 6.56322 15.133 6.45898L27.9582 6.16996V6.49215ZM27.9582 5.71511L18.8445 5.92359L18.8352 5.6014L27.9582 5.39293V5.71511ZM27.9582 4.82436L15.7694 5.18919C15.932 5.05179 16.1178 4.94281 16.3129 4.84805L27.9582 4.49744V4.82436ZM27.9582 4.10418L20.6282 4.32687L20.6143 4.00468L27.9582 3.782V4.10418ZM27.9582 3.583V3.26081L19.9314 3.51193C19.7178 3.61143 19.4994 3.70619 19.2811 3.79621L19.2858 3.8578L27.9582 3.583ZM27.9582 2.8723L26.8387 2.90546L26.8248 2.58327L27.9582 2.54537V2.8723ZM27.9582 2.37006V2.04314L22.3237 2.22792C22.1332 2.34637 21.9381 2.46009 21.743 2.5738L27.9582 2.37006ZM27.9582 29.9407L26.8805 29.9644L27.9582 30.0923V30.4192L24.5812 30.0165L15.6347 30.2202C15.6347 30.1112 15.6301 30.0023 15.6301 29.898L22.3004 29.7464L19.1325 29.3674L15.6254 29.4479C15.6254 29.3342 15.6254 29.23 15.6254 29.1257L16.861 29.0973L16.9167 28.7751L19.1557 29.0452L27.9535 28.8462V29.1684L21.4318 29.3152L24.5998 29.6943L27.9535 29.6185V29.9407H27.9582ZM27.9582 30.9688V30.6466L22.7835 30.7272L19.23 30.2913L19.1696 30.6135L20.4145 30.7651L15.6486 30.8362C15.6533 31.1062 15.6626 31.3763 15.6719 31.6369L16.7449 31.6511L15.6719 31.6653C15.6765 31.7743 15.6811 31.8833 15.6858 31.9875L20.0476 31.9212L24.4929 32.4897L17.7575 32.395L16.3408 32.2244L16.3129 32.376L15.7044 32.3665C15.709 32.4755 15.7137 32.5845 15.723 32.6935L17.7296 32.7219L17.8551 32.7361L15.7276 32.6935C15.7322 32.8072 15.7415 32.9161 15.7462 33.0156L21.0463 33.1199L23.0762 33.3663L15.788 33.5131C15.8251 33.8874 15.867 34.257 15.9134 34.6313L21.9056 34.5129L22.0728 34.5271L15.9227 34.7166C15.9552 34.9535 15.9877 35.1857 16.0202 35.4226L16.3965 35.4178L16.0202 35.4273C16.0388 35.5363 16.0528 35.6405 16.0713 35.7495L17.07 35.7211L16.0713 35.7495C16.0899 35.8585 16.1085 35.9627 16.1271 36.0717L26.9781 35.7116L27.9628 35.759V34.745L27.3125 34.6834L27.9628 34.6645V34.0248L25.0364 33.968L22.4026 33.8353L24.4743 33.6553L25.3616 33.6363L27.9582 33.9538V33.6269L27.6748 33.5937L27.9582 33.589V32.9304L21.0741 32.793L20.7815 32.7551L27.3497 32.8498L27.9582 32.9256V32.5324L27.3868 32.5276L22.3469 31.8833L27.7724 31.8027L27.9628 31.8074V31.3621L25.1293 31.0115L27.9582 30.9688ZM27.9582 36.9198L16.7867 37.2704L20.2287 37.5499L27.9582 37.3083V37.6352L23.1226 37.7868L25.134 37.9479L27.9582 37.8627V38.5023L25.1247 38.2749L16.6334 38.5307C16.6102 38.4454 16.5916 38.3554 16.5684 38.2701L16.5544 38.2085L22.1936 38.038L20.2148 37.8769L16.5033 37.9953C16.4801 37.8863 16.4522 37.7821 16.429 37.6731L17.3162 37.6447L16.4058 37.5736C16.364 37.3746 16.3222 37.1709 16.2804 36.9672L19.8153 36.8582L16.2571 36.844C16.2293 36.7113 16.206 36.5834 16.1828 36.4507L27.9535 36.0622V36.3844L23.0065 36.5502L27.9535 36.5692V36.9198H27.9582ZM27.9582 38.9003L18.1431 39.194L23.694 39.7484L27.9628 39.6536V39.9758L26.3324 40.0137L27.9628 40.1748V40.7481L18.3428 40.9661L23.4989 41.582L27.9628 41.5157V41.8379L25.9004 41.871L26.9363 41.9942L26.8805 42.3164L23.4756 41.9089L17.6878 41.9942C17.6507 41.8852 17.6135 41.781 17.5764 41.672L21.0741 41.6199L17.4138 41.1793C17.358 41.0087 17.3023 40.8381 17.2466 40.6628L27.3497 40.4354L23.68 40.0658L17.1072 40.2127C17.0747 40.1037 17.0422 39.9995 17.0143 39.8905L21.0463 39.8005L16.8703 39.3836C16.8285 39.2225 16.782 39.0614 16.7402 38.905L27.9628 38.5686V38.9003H27.9582ZM27.9582 28.813V28.3155L26.6854 28.1876L27.9582 28.1497V27.8275L24.1956 27.9412L21.167 27.638L22.045 27.6048L27.9582 27.7233V27.1026L27.201 27.1263L24.5208 26.9936L27.9582 26.8846V26.3019L26.2999 26.2687L27.9582 26.2924V25.8517L27.6423 25.8612L27.4194 25.8328L27.9582 25.8375V24.0466L21.7105 24.1082L27.9582 23.9139V23.2174L25.9097 23.26L27.9582 23.0847V22.3835L27.7584 22.3598L27.7445 22.4309L16.0667 22.663C16.0528 22.862 16.0342 23.061 16.0156 23.2695L24.2189 23.0847L20.9952 23.3643L16.0063 23.459C15.9831 23.7149 15.9599 23.9897 15.932 24.2835L18.7562 24.1982L18.7609 24.4635L24.9342 24.4019L22.3887 24.4825L18.6401 24.5393V24.5962L15.8948 24.6815C15.8762 24.8757 15.8577 25.07 15.8391 25.2642L15.8298 25.3543L21.8731 25.1553L27.5773 25.2358L15.8251 25.4158C15.8019 25.6528 15.7833 25.8897 15.7648 26.1218L18.3056 26.1597L15.7555 26.2403C15.7462 26.3492 15.7369 26.4582 15.7276 26.5672L19.1743 26.4582L25.1525 26.5767L25.8586 26.6335L15.6997 26.951C15.6811 27.2353 15.6672 27.5195 15.6533 27.8038L18.6587 27.7138L21.6873 28.017L19.6341 28.0786L15.644 27.8796C15.6347 28.0928 15.6301 28.306 15.6254 28.524L19.6295 28.4055L27.9582 28.813ZM27.9582 22.0613L16.0899 22.4214C16.0992 22.3124 16.1085 22.2035 16.1131 22.0945L27.9582 21.7391V22.0613ZM27.9582 21.3411L16.141 21.6965C16.1457 21.5923 16.155 21.4833 16.1596 21.3696L27.1221 21.0379L27.1314 20.9668L25.473 20.8863L16.1689 21.18C16.1735 21.0758 16.1828 20.9668 16.1875 20.8531L21.4736 20.6873L16.5869 20.4457L16.6102 20.1235L25.4823 20.5641L27.9535 20.4883V21.3411H27.9582ZM27.9582 20.1045V19.0527L26.8991 19.0479V19.3038L26.7551 19.3085L24.1678 19.1806L24.1538 19.3938L20.3448 19.5217L16.2618 19.4412C16.2525 19.6212 16.2479 19.8013 16.2386 19.9813L20.3541 19.8439L23.7358 19.9103L21.1949 19.9908L21.2088 20.313L27.9582 20.1045ZM27.9582 18.9011H27.8932L16.2664 19.2848C16.2711 19.1759 16.2757 19.0669 16.2804 18.9626L21.7755 18.7826L21.3668 18.7731V18.7589L16.285 18.9153C16.2897 18.8063 16.2943 18.6973 16.2943 18.5883L20.1637 18.4699L16.2989 18.413C16.3036 18.1904 16.3129 17.9724 16.3175 17.7592L23.5407 17.6502L27.6981 17.5223L22.8486 17.4512L16.3175 17.5839C16.3222 17.3991 16.3222 17.2191 16.3268 17.0343L20.9766 17.1006L20.9719 16.8542L27.9582 16.75V17.9061L23.5686 17.9724L18.6772 18.124L27.3543 18.2472L27.9582 18.2283V18.9011ZM27.9582 16.5557V16.2288L16.3315 16.461C16.3315 16.5699 16.3315 16.6789 16.3315 16.7832L27.9582 16.5557ZM27.9582 16.1435L16.3315 16.4088C16.3315 16.2999 16.3315 16.1909 16.3315 16.0867L27.9582 15.8213V16.1435ZM27.9582 15.3712L16.3268 15.6366C16.3268 15.5276 16.3222 15.4186 16.3222 15.3096L27.9628 15.0443V15.3712H27.9582ZM17.7389 42.1648C17.8179 42.3875 17.8969 42.6102 17.9805 42.8328L19.2254 42.8139L20.5028 42.8328L25.7007 43.4725L25.761 43.1503L23.5082 42.8755L27.9535 42.9371V42.3543L20.2566 42.4728L17.7389 42.1648ZM18.2174 43.4583L18.8445 43.5388L27.9582 43.6667V43.9889L21.7059 43.8989L22.4723 43.9984L27.9582 44.1074V44.4296L25.7564 44.3869L25.7657 44.6949L20.7304 44.7944L23.3317 45.1118L27.9582 45.2019V45.524L27.4008 45.5146L27.9582 45.543V45.8699L24.5951 45.7041L20.2937 45.8368L24.4697 46.2253L24.4511 46.3769L27.3218 46.2821L27.3357 46.6043L24.5626 46.6943L27.9582 46.8649V47.1918L20.6328 46.827L19.662 46.8602C19.5645 46.6517 19.4716 46.4432 19.3787 46.2348L19.9454 46.23L19.95 46.4669L20.6375 46.5001L23.0901 46.4195L19.3043 46.0689C19.2254 45.8936 19.151 45.723 19.0767 45.5477L20.5585 45.5004L19.021 45.4245C18.9652 45.2919 18.9049 45.1545 18.8491 45.0218L20.1033 45.0455L18.7934 44.8844C18.7423 44.7612 18.6865 44.6333 18.6354 44.5101L23.2248 44.4201L22.4305 44.3206L19.6202 44.2637L19.6295 44.3443L18.6029 44.4343C18.5332 44.259 18.4636 44.0884 18.3939 43.9131L19.4205 43.9321L18.8027 43.8515L18.366 43.8468C18.3196 43.7236 18.2685 43.5909 18.2174 43.4583ZM26.4717 19.6449L26.7597 19.6354L27.2707 19.6591L26.4717 19.6449ZM21.8777 24.8283L21.6826 24.8236L22.384 24.7999L22.8068 24.7952L21.8777 24.8283ZM17.9526 27.2021L21.822 27.0789L21.8127 27.1831L23.1226 27.2495L22.045 27.2826L17.9526 27.2021ZM27.1639 25.8754L25.3941 25.9323L21.167 25.8707L22.8718 25.8138L27.1685 25.8328L27.1639 25.8754ZM23.7126 28.2776L24.1817 28.2634L24.9156 28.3392L23.7126 28.2776ZM25.0875 33.281L24.27 33.1815L25.8725 33.2146L25.0875 33.281ZM18.4218 34.1812L19.0396 34.2381L17.3673 34.2712L18.4218 34.1812ZM24.6834 34.7687L26.9734 34.9819L20.1637 35.053L18.3707 34.963L24.6834 34.7687ZM16.508 31.1394L22.7557 31.0446L26.0723 31.4521L18.078 31.3431L16.508 31.1394ZM25.199 44.3869L25.3709 44.3822L25.199 44.3774V44.3869ZM20.0894 47.7746L27.9582 47.5282V47.8504L20.2427 48.0921C20.1916 47.9878 20.1405 47.8789 20.0894 47.7746ZM20.4285 48.4711L21.023 48.4522L21.037 48.7743L20.5817 48.7886C20.5306 48.6843 20.4796 48.5801 20.4285 48.4711ZM20.6979 49.0255L27.9582 48.8075V49.1344L20.8558 49.3476C20.8001 49.2387 20.749 49.1297 20.6979 49.0255ZM21.0509 49.7314L23.8519 49.6461L23.8658 49.9683L21.2135 50.0489C21.1577 49.9446 21.102 49.8404 21.0509 49.7314ZM21.613 50.8354L27.9582 50.6932V51.0154L21.7755 51.1576C21.7244 51.0486 21.6687 50.9444 21.613 50.8354ZM22.0124 51.6029L27.8235 51.4703L27.8328 51.7925L22.1797 51.9204L22.0124 51.6029ZM22.607 52.7306L27.9628 52.65V52.9722L22.7789 53.0528L22.607 52.7306ZM23.0437 53.5597L27.9582 53.4839V53.8061L23.2155 53.8772L23.0437 53.5597ZM23.2945 54.0241L27.9628 54.0904V54.4126L23.471 54.3463L23.2945 54.0241ZM23.9727 55.0901L27.9628 55.147V55.4739L24.3118 55.4218C24.1864 55.3128 24.0749 55.2038 23.9727 55.0901ZM24.5162 55.5829L27.9582 55.6492V55.9714L25.0364 55.9146C24.8552 55.8198 24.6787 55.7061 24.5162 55.5829Z" fill="#F7DFCF"/>
<path fill-rule="evenodd" clip-rule="evenodd" d="M47.8114 72.0001C53.3716 56.2888 54.6397 47.8835 50.5427 36.4648C51.0769 44.4437 51.128 52.2804 47.0496 61.458C45.6282 64.6561 44.662 68.3376 44.5923 72.0001H47.8114Z" fill="#CFA284"/>
<path fill-rule="evenodd" clip-rule="evenodd" d="M25.7471 57.4307C24.8553 57.099 23.8937 56.5873 22.8114 55.8813C23.2202 57.1274 24.1538 59.2643 24.7205 61.747C25.566 65.4285 25.6031 69.9059 25.6078 72.0001H27.1314C26.4625 66.3192 27.2243 62.4862 25.7471 57.4307Z" fill="#CFA284"/>
<path fill-rule="evenodd" clip-rule="evenodd" d="M34.2198 55.2654C32.6683 56.393 31.3491 57.2032 30.0624 57.6107C28.6317 62.7515 29.0591 66.9067 28.9708 72.0049H30.8475C30.8939 69.2521 31.0983 65.9639 31.7347 63.0405C32.45 59.7476 33.6995 56.9047 34.2198 55.2654Z" fill="#CFA284"/>
<path fill-rule="evenodd" clip-rule="evenodd" d="M46.0602 -14C46.2414 -12.7113 46.613 -11.3893 47.1704 -9.92056C49.5348 -3.70426 48.9541 2.41728 40.2585 1.00061C37.2995 0.517326 34.5589 -1.16941 32.6405 -3.29205C31.4606 -4.59975 30.7964 -3.77533 31.8044 -2.42499C35.0559 1.94821 38.5212 3.99504 42.8644 3.96187C50.8029 3.89554 52.5448 -1.94171 49.832 -8.30015C49.0238 -10.2048 48.0483 -12.1285 47.4026 -14H46.0602Z" fill="#CFA284"/>
<path fill-rule="evenodd" clip-rule="evenodd" d="M29.1334 32.1956C29.1984 32.0724 29.2356 31.935 29.2449 31.8023C29.2867 30.4946 26.8852 30.4852 26.7783 31.6886C26.6947 32.6836 28.5714 33.2285 29.1334 32.1956Z" fill="#BA8F72"/>
<path fill-rule="evenodd" clip-rule="evenodd" d="M29.0173 32.2384C29.0777 32.1295 29.1102 32.0063 29.1148 31.8878C29.152 30.727 27.0152 30.7175 26.9223 31.7883C26.848 32.6743 28.5156 33.1576 29.0173 32.2384Z" fill="#CFA284"/>
<path fill-rule="evenodd" clip-rule="evenodd" d="M28.7989 32.2762C28.8454 32.1909 28.8733 32.0962 28.8779 32.0014C28.9058 31.0822 27.2196 31.0775 27.1499 31.9209C27.0895 32.6174 28.4041 32.9964 28.7989 32.2762Z" fill="#BA8F72"/>
<path fill-rule="evenodd" clip-rule="evenodd" d="M28.8547 32.1389C28.8686 32.0915 28.8733 32.0442 28.8779 31.9968C28.9058 31.0776 27.2196 31.0729 27.15 31.9162C27.1407 32.0157 27.1592 32.1058 27.2011 32.191C27.3961 31.5656 28.5992 31.5325 28.8547 32.1389Z" fill="#B0876C"/>
<path fill-rule="evenodd" clip-rule="evenodd" d="M24.5533 53.9339C20.2845 45.7939 17.7064 40.241 17.084 33.2903C16.9539 31.8357 16.8657 31.3619 18.4589 31.1629C20.5167 30.9118 22.5792 30.7365 24.6509 30.6844C26.3835 30.637 26.063 31.613 26.0723 32.8402C26.0816 34.2189 26.2349 35.3987 26.481 36.5074C27.4983 41.0038 27.568 44.5241 27.5123 49.229L27.4565 54.384C27.4333 56.3124 25.2036 55.18 24.5533 53.9339ZM31.4374 53.9339C35.7062 45.7939 38.2843 40.241 38.9067 33.2903C39.0368 31.8357 39.125 31.3619 37.5318 31.1629C35.474 30.9118 33.4116 30.7365 31.3398 30.6844C29.6072 30.637 29.9277 31.613 29.9184 32.8402C29.9091 34.2189 29.7559 35.3987 29.5097 36.5074C28.4924 41.0038 28.4227 44.5241 28.4784 49.229L28.5342 54.384C28.5574 56.3124 30.7871 55.18 31.4374 53.9339ZM39.0368 28.5996C39.06 30.2485 39.2412 30.7981 37.3367 30.5849C35.3718 30.3669 33.4023 30.1963 31.4281 30.1395C29.8209 30.0921 29.7651 29.7983 29.5097 28.2443C29.361 27.3346 29.1706 26.3538 28.929 25.283C28.8408 24.3686 28.7664 23.4541 28.7014 22.5349C28.5946 20.9667 28.8361 20.8435 30.2854 20.9714C30.578 20.9951 30.8707 21.0283 31.1633 21.0662C33.1561 21.3362 35.1581 21.8242 37.123 22.3928C38.6141 22.824 38.6466 23.2599 38.7674 24.6528C38.7906 24.8897 38.8092 25.1266 38.8324 25.3683C38.9392 26.4865 39.0229 27.5667 39.0368 28.5996ZM38.4515 20.0854C38.3818 18.6213 38.354 17.1668 38.3865 15.7169C38.419 14.3571 38.2471 13.907 36.8675 13.4C34.5543 12.5472 32.1806 11.7228 29.7837 11.5285C28.5621 11.429 28.3437 11.6706 28.3577 12.9167C28.3763 14.812 28.4181 16.7024 28.4924 18.5929C28.5713 20.545 28.8082 20.2654 30.5687 20.436C30.7964 20.4597 31.0193 20.4834 31.2423 20.5165C33.0678 20.7677 34.898 21.1941 36.7049 21.6963C38.7952 22.2791 38.5351 21.8527 38.4515 20.0854ZM38.6838 11.5048C38.5212 12.8646 38.5955 13.4474 36.8768 12.8172C34.5821 11.9739 32.241 11.1779 29.8348 10.9836C28.3902 10.8652 28.3391 10.5003 28.3391 9.05525C28.3391 6.33088 28.3577 3.60651 28.3484 0.886882C28.3437 -0.548742 29.2913 0.422554 29.8906 0.910571C31.8694 2.54045 34.6146 4.49252 38.3632 5.60596C39.7521 6.01817 39.6453 6.36878 39.3573 7.62436C39.0554 8.92732 38.837 10.2161 38.6838 11.5048ZM16.9539 28.5996C16.9307 30.2485 16.7495 30.7981 18.654 30.5849C20.6189 30.3669 22.5884 30.1963 24.5626 30.1395C26.1698 30.0921 26.2256 29.7983 26.481 28.2443C26.6297 27.3346 26.8201 26.3538 27.0617 25.283C27.1499 24.3686 27.2243 23.4541 27.2893 22.5349C27.3961 20.9667 27.1546 20.8435 25.7053 20.9714C25.4127 20.9951 25.12 21.0283 24.8274 21.0662C22.8346 21.3362 20.8326 21.8242 18.8677 22.3928C17.3766 22.824 17.3441 23.2599 17.2233 24.6528C17.2001 24.8897 17.1815 25.1266 17.1583 25.3683C17.0515 26.4865 16.9679 27.5667 16.9539 28.5996ZM17.5392 20.0854C17.6089 18.6213 17.6368 17.1668 17.5996 15.7169C17.5671 14.3571 17.7389 13.907 19.1185 13.4C21.4318 12.5472 23.8055 11.7228 26.2023 11.5285C27.424 11.429 27.6423 11.6706 27.6284 12.9167C27.6098 14.812 27.568 16.7024 27.4937 18.5929C27.4147 20.545 27.1778 20.2654 25.4173 20.436C25.1897 20.4597 24.9667 20.4834 24.7391 20.5165C22.9136 20.7677 21.0834 21.1941 19.2765 21.6963C17.1955 22.2791 17.4556 21.8527 17.5392 20.0854ZM17.3069 11.5048C17.4695 12.8646 17.3952 13.4474 19.1139 12.8172C21.4086 11.9739 23.7497 11.1779 26.1559 10.9836C27.6005 10.8652 27.6516 10.5003 27.6516 9.05525C27.6516 6.33088 27.633 3.60651 27.6423 0.886882C27.647 -0.548742 26.6994 0.422554 26.1001 0.910571C24.1213 2.54045 21.3761 4.49252 17.6275 5.60596C16.2386 6.01817 16.3454 6.36878 16.6334 7.62436C16.9353 8.92732 17.1537 10.2161 17.3069 11.5048Z" fill="#C75C52"/>
<path fill-rule="evenodd" clip-rule="evenodd" d="M25.0736 53.6447C25.2036 53.8911 25.408 54.1185 25.6171 54.2986C25.8354 54.4834 26.1048 54.6634 26.3742 54.7534C26.4578 54.7819 26.6715 54.8387 26.7598 54.7913C26.8434 54.744 26.8619 54.4502 26.8619 54.3744L26.9177 49.2194C26.9409 46.9783 26.9456 44.7278 26.7783 42.4867C26.6297 40.5062 26.3371 38.5731 25.9004 36.6399C25.6171 35.3844 25.4824 34.1288 25.4731 32.84C25.4731 32.5842 25.5427 31.6271 25.422 31.4328C25.3244 31.2812 24.8042 31.2812 24.6602 31.286C22.607 31.3381 20.5585 31.5087 18.524 31.7598C18.3753 31.7787 17.7482 31.864 17.6553 32.0109C17.5531 32.1767 17.6507 33.0296 17.6693 33.2286C17.8086 34.7921 18.0548 36.3367 18.4125 37.8624C19.0117 40.4114 19.9036 42.8562 20.9441 45.2489C22.1936 48.1107 23.6336 50.8967 25.0736 53.6447ZM30.9171 53.6447C32.3618 50.8919 33.7971 48.1107 35.042 45.2584C36.0825 42.8657 36.979 40.4209 37.5736 37.8718C37.9313 36.3462 38.1774 34.8016 38.3214 33.238C38.34 33.039 38.4422 32.1862 38.3354 32.0204C38.2425 31.8735 37.6154 31.7882 37.4667 31.7692C35.4275 31.5181 33.3837 31.3476 31.3305 31.2954C31.1865 31.2907 30.6663 31.2907 30.5687 31.4423C30.448 31.6318 30.5177 32.5937 30.5177 32.8495C30.5084 34.1383 30.3737 35.3938 30.0903 36.6494C29.6537 38.5825 29.361 40.5204 29.2124 42.4962C29.0452 44.7325 29.0498 46.9831 29.073 49.2289L29.1288 54.3839C29.1288 54.4597 29.1473 54.7534 29.231 54.8008C29.3192 54.8482 29.5329 54.7913 29.6165 54.7629C29.8859 54.6729 30.1553 54.4928 30.3737 54.3081C30.578 54.1233 30.7871 53.8911 30.9171 53.6447ZM29.3192 21.5635C29.2495 21.7294 29.2913 22.3358 29.3006 22.4874C29.361 23.3877 29.4353 24.2832 29.5236 25.1786C29.7419 26.1594 29.9417 27.1449 30.1042 28.1352C30.1414 28.3626 30.2529 29.1823 30.4155 29.3481C30.5734 29.5045 31.2516 29.5234 31.456 29.5282C33.4441 29.5898 35.4322 29.7556 37.411 29.9783C37.5736 29.9972 38.2611 30.0636 38.4143 29.9641C38.5026 29.803 38.4515 28.7938 38.4515 28.6042C38.4376 27.5382 38.3493 26.4721 38.2564 25.4108C38.2332 25.1739 38.2146 24.9323 38.1914 24.6954C38.1635 24.3969 38.131 23.7193 37.9684 23.4682C37.7965 23.2076 37.2531 23.0465 36.979 22.966C35.0513 22.4116 33.0864 21.9284 31.1029 21.6583C30.8196 21.6204 30.5362 21.5872 30.2529 21.5635C30.0903 21.5588 29.4818 21.5019 29.3192 21.5635ZM37.9127 21.3361C37.9313 21.0281 37.8662 20.2985 37.8616 20.1137C37.7919 18.6449 37.764 17.1714 37.7965 15.7026C37.8244 14.556 37.7501 14.3712 36.6678 13.9732C34.4428 13.1535 32.1109 12.3291 29.7419 12.1396C29.6211 12.1301 29.1427 12.0969 29.0266 12.1633C28.9522 12.2817 28.9522 12.7934 28.9569 12.9166C28.9755 14.8024 29.0173 16.6881 29.0916 18.5738C29.0962 18.7397 29.1288 19.5546 29.2356 19.6873C29.3471 19.7678 30.4573 19.8247 30.6338 19.8389C30.866 19.8626 31.0983 19.8863 31.3305 19.9194C33.2025 20.1753 35.0513 20.6064 36.8722 21.1134C37.0347 21.1608 37.6293 21.3266 37.9127 21.3361ZM28.943 0.905716C29.1566 1.06681 29.4121 1.29897 29.519 1.38426C32.1574 3.55901 34.9212 5.21732 38.2007 6.19336C38.3029 6.22179 38.8881 6.40657 38.9346 6.52028C38.9903 6.64347 38.8092 7.35891 38.7813 7.49632C38.484 8.79928 38.2564 10.1164 38.0985 11.4431C38.0799 11.6042 38.0195 12.2817 37.9452 12.476C37.7454 12.4902 37.2252 12.3102 37.0812 12.258C34.754 11.4052 32.3664 10.5903 29.8859 10.3913C29.7326 10.377 29.152 10.3297 29.0452 10.1923C28.9244 10.0406 28.9383 9.25413 28.9383 9.06461C28.9337 6.34024 28.9476 3.62061 28.943 0.905716ZM17.581 29.9688C17.7343 30.0636 18.4218 29.9972 18.5844 29.983C20.5632 29.7603 22.5466 29.5945 24.5394 29.5329C24.7391 29.5282 25.422 29.5092 25.5799 29.3529C25.7425 29.1918 25.854 28.3673 25.8911 28.1399C26.0537 27.1497 26.2534 26.1594 26.4718 25.1834C26.5554 24.2879 26.6297 23.3877 26.6947 22.4922C26.704 22.3406 26.7458 21.7341 26.6761 21.5683C26.5089 21.5067 25.9004 21.5588 25.7518 21.573C25.4684 21.5967 25.1851 21.6299 24.9017 21.6678C22.9136 21.9378 20.9534 22.4211 19.0256 22.9755C18.7516 23.056 18.2081 23.2124 18.0362 23.4777C17.869 23.7335 17.8365 24.4064 17.8133 24.7048C17.79 24.9417 17.7715 25.1834 17.7482 25.4203C17.6507 26.4816 17.5671 27.5477 17.5531 28.6137C17.5439 28.7985 17.4974 29.8124 17.581 29.9688ZM18.078 21.3361C18.3614 21.3219 18.956 21.1608 19.1232 21.1134C20.9441 20.6064 22.7928 20.1753 24.6648 19.9194C24.8971 19.8863 25.1293 19.8626 25.3616 19.8389C25.5381 19.8199 26.6483 19.7631 26.7598 19.6873C26.8666 19.5593 26.8945 18.7444 26.9038 18.5738C26.9781 16.6881 27.0199 14.8024 27.0385 12.9166C27.0385 12.7887 27.0385 12.277 26.9688 12.1633C26.8527 12.0969 26.3742 12.1301 26.2534 12.1396C23.8844 12.3291 21.5479 13.1583 19.3276 13.9732C18.2453 14.3712 18.1709 14.5607 18.1988 15.7026C18.2313 17.1714 18.2035 18.6449 18.1338 20.1137C18.1198 20.2985 18.0595 21.0329 18.078 21.3361ZM18.0502 12.4665C17.9758 12.2723 17.9155 11.59 17.8969 11.4336C17.7389 10.107 17.5113 8.7898 17.214 7.48684C17.1815 7.34944 17.005 6.634 17.0608 6.51081C17.1119 6.39709 17.6925 6.21705 17.7947 6.18388C21.0695 5.20785 23.838 3.55428 26.4764 1.37478C26.5786 1.2895 26.8341 1.06207 27.0524 0.89624C27.0431 3.61587 27.0617 6.33076 27.0617 9.04565C27.0617 9.23517 27.0756 10.0217 26.9549 10.1733C26.848 10.306 26.2674 10.3581 26.1141 10.3723C23.6336 10.5713 21.246 11.3862 18.9188 12.2391C18.7702 12.3007 18.2499 12.4807 18.0502 12.4665Z" fill="#D6736A"/>
<path fill-rule="evenodd" clip-rule="evenodd" d="M25.134 49.8733L25.1433 49.2053C25.1665 47.0163 25.1758 44.8178 25.0086 42.6336C24.8646 40.7526 24.5859 38.8906 24.1678 37.0522C23.8751 35.7635 23.7265 34.4605 23.6986 33.1386C22.2912 33.2002 20.8837 33.3186 19.4855 33.475C19.6249 34.8111 19.8432 36.1378 20.1498 37.4455C20.7211 39.8808 21.5805 42.2309 22.5792 44.5194C23.3688 46.334 24.2328 48.1108 25.134 49.8733ZM30.8568 49.8733C31.7533 48.1108 32.6219 46.334 33.4116 44.5194C34.4056 42.2309 35.2696 39.8808 35.841 37.4455C36.1475 36.1378 36.3705 34.8111 36.5052 33.475C35.1024 33.3186 33.6996 33.2002 32.2921 33.1386C32.2642 34.4558 32.1156 35.7635 31.8229 37.0522C31.4095 38.8906 31.1262 40.7526 30.9822 42.6336C30.8149 44.8178 30.8242 47.0163 30.8475 49.2053L30.8568 49.8733ZM31.1587 23.5062C31.1958 23.9705 31.2377 24.4301 31.2795 24.8944C31.4885 25.8326 31.6789 26.7802 31.8369 27.7325C33.4441 27.7894 35.0466 27.9125 36.6492 28.0784C36.6167 27.2492 36.5517 26.4153 36.4727 25.5909C36.4495 25.3493 36.4309 25.1076 36.4077 24.866C36.403 24.8139 36.3984 24.757 36.3937 24.6954C34.675 24.2027 32.9285 23.7668 31.1587 23.5062ZM36.0361 19.0145C35.9989 17.8964 35.9942 16.7782 36.0175 15.6647C34.3313 15.0441 32.5429 14.3997 30.7499 14.0964C30.7685 15.4089 30.801 16.7261 30.8521 18.0385C31.089 18.0622 31.3306 18.0906 31.5675 18.1238C33.0725 18.3228 34.5589 18.6355 36.0361 19.0145ZM30.722 4.54932C30.7174 5.91387 30.7128 7.27368 30.7128 8.63824C32.6916 8.87988 34.5914 9.4437 36.4727 10.1023C36.5935 9.28735 36.7375 8.48188 36.9047 7.67642C34.6704 6.92781 32.6405 5.86649 30.722 4.54932ZM19.3415 28.0736C20.9394 27.9078 22.5466 27.7846 24.1539 27.7278C24.3118 26.7754 24.5022 25.8326 24.7113 24.8897C24.7531 24.4301 24.7949 23.9658 24.832 23.5014C23.0623 23.762 21.3157 24.1979 19.597 24.6907C19.5924 24.7523 19.5877 24.8091 19.5831 24.8613C19.5598 25.1029 19.5413 25.3445 19.518 25.5814C19.4391 26.4153 19.374 27.2445 19.3415 28.0736ZM19.9547 19.0145C21.4272 18.6402 22.9183 18.3228 24.4279 18.119C24.6648 18.0859 24.9064 18.0574 25.1433 18.0338C25.1897 16.7213 25.2222 15.4041 25.2455 14.0917C23.4478 14.3997 21.6641 15.0441 19.9779 15.66C20.0011 16.7782 19.9918 17.8964 19.9547 19.0145ZM25.2687 4.54932C23.3502 5.86649 21.3203 6.92781 19.0814 7.68115C19.2533 8.48662 19.3973 9.29209 19.5134 10.107C21.3947 9.44844 23.2945 8.87988 25.2733 8.64298C25.278 7.27842 25.2733 5.91387 25.2687 4.54932Z" fill="#E0837B"/>
<path fill-rule="evenodd" clip-rule="evenodd" d="M47.4026 -14C48.0483 -12.1285 49.0284 -10.2048 49.8367 -8.30015C52.5494 -1.94171 50.8075 3.89554 42.869 3.96188C38.4376 3.99978 34.9026 1.88188 31.6139 -2.69032C31.2144 -3.24941 30.801 -4.40549 31.665 -3.2115C34.8794 1.24698 38.3354 3.40279 42.6646 3.26065C44.8339 3.18958 46.5294 2.68735 47.7835 1.85819C50.9097 -0.202852 51.2906 -4.26808 49.4558 -8.59864C48.6847 -10.4086 47.751 -12.228 47.1193 -14H47.4026Z" fill="#A87E62"/>
<path fill-rule="evenodd" clip-rule="evenodd" d="M11.4077 72.0001C11.338 68.3376 10.3718 64.6561 8.95039 61.4579C5.02063 52.6215 4.92308 45.0264 5.39688 37.3508C1.61576 48.3241 2.79562 56.6962 8.21182 72.0001H11.4077Z" fill="#CFA284"/>
<path fill-rule="evenodd" clip-rule="evenodd" d="M38.2703 52.124C30.225 57.677 27.9582 59.3827 18.668 52.7163L18.3614 52.5315C27.8142 60.7567 30.2761 58.8331 38.2703 52.124Z" fill="#9E7459"/>
<path fill-rule="evenodd" clip-rule="evenodd" d="M10.107 -14C9.92587 -12.7113 9.55426 -11.3893 8.99685 -9.92056C6.63248 -3.70426 6.41881 1.73026 15.1145 0.313591C18.0223 -0.160212 21.5061 -1.78536 23.3967 -3.89378C24.4883 -5.11145 25.4266 -3.91273 24.6369 -2.80877C21.325 1.84398 17.7668 3.99504 13.2982 3.95714C5.35972 3.89081 3.6178 -1.94645 6.33055 -8.30489C7.14345 -10.2048 8.11892 -12.1285 8.76459 -14H10.107Z" fill="#CFA284"/>
<path fill-rule="evenodd" clip-rule="evenodd" d="M8.76459 -14C8.11892 -12.1285 7.1388 -10.2048 6.33055 -8.30015C3.6178 -1.94171 5.35972 3.89554 13.2982 3.96188C17.8551 3.99978 21.469 1.75869 24.8413 -3.09305C25.1433 -3.52895 25.0596 -4.16385 24.5301 -3.41998C21.2878 1.14275 17.8876 3.40753 13.5119 3.26538C11.3426 3.19431 9.64716 2.69208 8.39298 1.86293C5.26682 -0.202853 4.88127 -4.26808 6.71609 -8.59864C7.48254 -10.4086 8.41621 -12.228 9.04794 -14H8.76459Z" fill="#A87E62"/>
<path fill-rule="evenodd" clip-rule="evenodd" d="M47.8579 72C54.3703 53.588 55.002 45.2112 47.9926 30.2579C43.9142 21.5542 43.7562 21.3694 45.9069 12.1065C46.5712 9.24477 47.0264 6.29771 47.2958 3.28906C47.2726 3.29854 47.2494 3.30801 47.2261 3.32223C46.9196 6.38773 46.4225 9.38691 45.7072 12.2913C43.4404 21.5257 43.5937 21.7105 47.5652 30.4664C54.361 45.4528 53.6596 53.8154 46.9846 72H47.8579Z" fill="#A87E62"/>
<path fill-rule="evenodd" clip-rule="evenodd" d="M8.14214 71.9998C1.62969 53.5878 0.99796 45.2109 8.00744 30.2577C12.0858 21.5539 12.4853 21.2175 10.3346 11.9547C9.67039 9.09291 9.21517 6.14586 8.94575 3.13721C8.96897 3.14668 8.9922 3.15616 9.01543 3.17037C9.322 6.23588 9.81903 9.23505 10.5344 12.1395C12.8012 21.3739 12.4064 21.7103 8.43479 30.4709C1.63899 45.4573 2.3404 53.8199 9.01543 72.0045H8.21182H8.14214V71.9998Z" fill="#A87E62"/>
<path fill-rule="evenodd" clip-rule="evenodd" d="M29.9695 10.9979L29.951 4.44045L29.8813 10.9931L29.8302 10.9884C29.7512 10.9837 29.6815 10.9742 29.6119 10.9695L29.3424 7.03689L29.3006 10.9268C29.2124 10.9126 29.1334 10.8937 29.0637 10.87L29.1334 4.03298L28.8733 0.166748C28.9523 0.195176 29.0359 0.242557 29.1195 0.294675L29.1706 1.01012L29.1799 0.332579C29.2588 0.384698 29.3378 0.446292 29.4168 0.507887L29.3796 4.01403L29.6815 8.38723L29.7605 0.796906C29.807 0.83481 29.8534 0.872715 29.8952 0.910619C29.9928 0.991165 30.0903 1.07171 30.1925 1.15226L30.4294 1.34178C30.592 1.46971 30.7639 1.60237 30.9357 1.73504L30.9868 11.1211C30.9079 11.1069 30.8289 11.0974 30.7499 11.0879L30.736 8.61466L30.7406 11.0879C30.6617 11.0784 30.5827 11.0642 30.5037 11.0547L30.4991 9.01739L30.4526 11.0453C30.2854 11.0263 30.1275 11.0121 29.9695 10.9979ZM31.8647 10.6094V11.2822C31.7579 11.2585 31.6511 11.2395 31.5442 11.2206L31.6278 10.5952L31.6139 6.95161L31.4838 10.3203L31.4885 11.2111C31.3956 11.1921 31.3073 11.1779 31.2144 11.1637L31.2469 10.3203L31.2005 1.94825C31.2795 2.0051 31.3584 2.0667 31.4374 2.12355L31.4513 4.9948L31.5628 2.21358C31.6511 2.27991 31.744 2.34151 31.8369 2.40784L31.8601 8.82787L32.1342 6.72418L32.1202 2.6021C32.1992 2.65421 32.2782 2.71107 32.3571 2.76319L32.3618 4.95216L32.5244 3.72027V2.86743C32.6312 2.9385 32.738 3.00957 32.8495 3.0759L32.7613 3.73449L32.7752 11.4101L33.0632 9.55753L33.0539 3.19909C33.1329 3.24647 33.2118 3.29385 33.2908 3.34597L33.3001 8.04136L33.825 4.65366L33.8296 3.66815C33.9458 3.73449 34.0665 3.80082 34.1873 3.86715L34.0619 4.67735L34.0154 11.2964L34.3592 9.36327L34.3963 3.98086C34.4753 4.02351 34.5543 4.06141 34.6332 4.10405L34.6054 7.97028L35.1674 4.82423L35.1767 4.36938C35.2743 4.41676 35.3672 4.4594 35.4647 4.50679L35.4043 4.84792L35.33 9.07425L35.7388 6.83316L35.7759 4.65366C35.8828 4.70104 35.9942 4.74842 36.1057 4.7958L36.1011 4.84318L36.1104 4.7958C36.1847 4.82897 36.259 4.8574 36.3333 4.89056L36.0082 6.68628L35.9664 7.47279L35.9106 10.8036L36.4866 7.72865L36.626 5.01375C36.705 5.04218 36.7793 5.07535 36.8582 5.10378L36.8118 5.98505L36.9 5.51598L36.9233 5.12747C37.0115 5.16063 37.1044 5.1938 37.1973 5.22697L37.1369 5.54441L36.9 9.65702L37.6665 5.38806C37.8012 5.43544 37.9359 5.47808 38.0753 5.52072L37.7269 9.22586L37.6386 10.7136L38.3818 5.61548C38.4655 5.63917 38.5398 5.66286 38.6095 5.69129L37.5364 13.0258C37.4157 12.9973 37.2856 12.9642 37.1369 12.9168L37.4853 9.21165L37.6154 6.99425L36.7793 11.6375L36.7142 12.7652C36.5517 12.7083 36.3937 12.6467 36.2312 12.5899L36.3891 9.50541L35.8828 12.2156L35.8781 12.4619C35.7434 12.4146 35.6087 12.3672 35.474 12.3198L35.6691 8.50568L35.3021 10.5288L35.2743 12.2535C35.1953 12.225 35.1163 12.2013 35.0374 12.1729L35.042 11.9597L35.0048 12.1634C34.9305 12.1398 34.8516 12.1113 34.7772 12.0876L35.0652 10.5051L35.1349 6.31671L34.5868 9.38222L34.5682 12.0166C34.4892 11.9929 34.4103 11.9644 34.3313 11.9408L34.3406 10.7705L34.1409 11.8839C34.0154 11.846 33.89 11.8081 33.7646 11.7702L33.8018 6.28828L33.2908 9.58595L33.2954 11.6375C33.2165 11.6138 33.1375 11.5949 33.0585 11.5712V11.1021L32.9889 11.5522C32.8356 11.5143 32.6869 11.4717 32.5336 11.4385L32.5244 5.5302L32.3664 6.7384L32.3804 11.4006C32.3014 11.3817 32.2224 11.3627 32.1435 11.3485L32.1342 8.51042L31.8647 10.6094ZM36.7979 7.37803L36.7282 7.75234L36.5238 11.7797L36.5563 11.5996L36.7979 7.37803ZM39.0182 5.85239C38.9485 5.81922 38.8742 5.78605 38.7906 5.75289L38.1078 13.0542C38.2146 13.0305 38.2936 12.9831 38.3586 12.9168L39.0182 5.85239Z" fill="#C75C52"/>
<path fill-rule="evenodd" clip-rule="evenodd" d="M29.9509 19.7254L29.9788 20.3935C29.8952 20.3887 29.8162 20.384 29.7419 20.3745L29.3935 11.5144C29.4678 11.5144 29.5468 11.5191 29.6304 11.5239L29.8813 17.9155L29.7884 11.5381C29.9881 11.5523 30.1878 11.576 30.3829 11.5997L30.7545 20.4645C30.6942 20.4598 30.6338 20.4503 30.5734 20.4456L30.5176 20.4409L30.3086 15.518L30.4991 20.4314C30.4154 20.4219 30.3365 20.4172 30.2622 20.4124L30.0856 15.9302L30.1414 19.7207L29.9509 19.7254ZM29.3889 11.5144C29.3053 11.5144 29.2263 11.5144 29.152 11.5239L29.2542 15.338L28.8593 11.5807C28.7432 11.6186 28.6503 11.6802 28.5806 11.7655L28.7989 20.0997C28.864 20.1708 28.9429 20.2229 29.0405 20.2608L28.8733 13.9877L29.3331 18.3466L29.3842 20.3366C29.4586 20.3461 29.5375 20.3556 29.6211 20.3603L29.584 19.0242L29.6397 19.0194L29.5654 18.3277L29.3889 11.5144ZM31.521 17.4701L31.7207 15.3569L31.9298 20.6162C32.0087 20.6304 32.0877 20.6398 32.1667 20.6541L31.8833 13.5754L31.9948 12.3625L32.2781 19.7633L32.1713 20.6588C32.2967 20.6778 32.4221 20.7014 32.5522 20.7251L32.515 19.7728L32.7334 17.9107L32.8448 20.7773C32.9238 20.7915 33.0028 20.8057 33.0864 20.8246L32.9145 16.3898L33.3047 13.0732L33.4952 19.4696L33.3001 20.8436L33.5323 20.8767V20.9147C33.6113 20.9289 33.6903 20.9478 33.7692 20.9668L33.7274 19.4838L34.0015 17.5364L34.1037 21.0426C34.1826 21.0615 34.2616 21.0805 34.3406 21.0947L34.1966 16.1387L34.6286 13.0543L34.7122 17.2427L34.3963 19.4269L34.6332 19.4601L34.7447 18.6973L34.7958 21.2037C34.9955 21.2511 35.1953 21.3032 35.395 21.3506L35.3997 20.9478L35.4089 21.3553C35.4879 21.3742 35.5669 21.3979 35.6458 21.4169L35.5947 18.9247L36.0035 16.1956L35.9431 20.3271L35.8177 21.1989L35.9292 21.2131L35.9338 21.488L36.1893 20.3461L36.1986 20.2703L36.1707 21.5543L36.4076 21.6206L36.4773 18.3135L37.1416 13.6418L37.0951 15.8639L36.7607 21.7201C36.9233 21.7628 37.0672 21.8007 37.202 21.8338L37.2391 20.0855L37.908 13.9545C37.843 13.8976 37.7687 13.8408 37.685 13.7887L37.2949 17.3564L37.3274 15.8639L37.4528 13.656C37.3041 13.5802 37.1276 13.5044 36.9279 13.4286L36.5145 16.3282L36.5795 13.3006C36.403 13.2343 36.2265 13.1727 36.05 13.1111L36.0314 14.4188L35.5669 17.5128L35.4972 14.1819L35.5158 13.3954L35.5808 12.9406C35.4647 12.8979 35.3532 12.86 35.2371 12.8221L35.251 13.547L34.9259 15.8023L34.8608 12.6894C34.7261 12.6468 34.5961 12.5994 34.4613 12.5568L34.1548 14.7268L34.0851 12.4383C34.0061 12.4146 33.9272 12.3909 33.8435 12.3625L33.955 16.1198L33.681 18.0671L33.5184 12.2678C33.4023 12.2346 33.2861 12.2014 33.17 12.1683L32.8541 14.85L32.7473 12.0545C32.6683 12.0356 32.5894 12.0119 32.5057 11.9929L32.673 16.3756L32.4547 18.2377L32.2178 11.9266C32.0041 11.8745 31.7904 11.8319 31.5721 11.7892L31.6418 13.5754L31.442 15.6886L31.2841 11.7371C31.154 11.7134 31.0286 11.6897 30.8985 11.6708V11.8698L30.8892 11.666C30.8103 11.6518 30.7313 11.6423 30.6477 11.6281L30.88 17.1953L30.8707 20.4693C30.9914 20.4835 31.1169 20.4977 31.2376 20.5167L31.2562 20.5214L31.2283 19.8818L31.2794 19.8865L31.3398 19.2469L31.3909 20.5403C31.4699 20.5498 31.5489 20.564 31.6278 20.5735L31.521 17.4701ZM31.1354 13.8266L31.2794 17.4654L31.1819 18.5172L31.1261 17.1953L31.1354 13.8266ZM35.0373 21.09L34.9584 17.2569L35.251 15.2195L35.1813 20.1281L35.0373 21.09ZM36.3333 14.054L36.2451 18.285L36.2172 18.4651L36.2776 14.433L36.3333 14.054ZM38.3586 14.8547L37.9545 21.9428C37.8848 21.9428 37.8058 21.9381 37.7176 21.9286L38.1542 14.2388C38.2657 14.4093 38.3261 14.6131 38.3586 14.8547Z" fill="#C75C52"/>
<path fill-rule="evenodd" clip-rule="evenodd" d="M29.9138 32.3712L29.9974 31.8169L30.2111 31.85L30.3365 30.8598C30.4062 30.8171 30.4898 30.784 30.5873 30.7556L28.4692 47.7888C28.4645 47.1018 28.4692 46.4384 28.4785 45.7893L29.0916 40.8618L28.4785 45.6661C28.4924 44.7422 28.5249 43.8467 28.5853 42.9607L28.8036 41.2361L28.6225 42.4395C28.7665 40.5301 29.0359 38.6302 29.5143 36.5123C29.7652 35.4036 29.9184 34.2238 29.9231 32.845C29.9231 32.6792 29.9184 32.5228 29.9138 32.3712ZM30.1135 32.6081L30.016 33.262H30.0346L30.1135 32.6081ZM29.9603 42.9939L30.5037 40.9471L28.7246 54.9953L28.9615 55.0285L30.0021 46.8033L30.1461 46.8459L29.1985 54.242L29.4354 54.2751L30.5688 45.4387L31.089 43.643L29.584 55.3933C29.663 55.3791 29.7466 55.3554 29.8302 55.3222L31.5164 42.1695L32.4454 38.9666L31.5767 45.3013L31.1587 46.6232L31.3863 46.699L30.2297 55.1375C30.3179 55.0853 30.4062 55.0332 30.4944 54.9716L31.8136 45.3582L32.4036 43.4866L30.8707 54.6637C30.9729 54.5689 31.0658 54.4694 31.1494 54.3652L32.8263 42.1458L33.7646 39.1798L33.1561 43.3255L32.4872 45.4245L32.7148 45.5003L32.9517 44.7659L31.8322 52.4226L32.0087 52.451L31.8926 53.0906C32.018 52.849 32.1435 52.6121 32.2642 52.3752L33.2258 47.097L32.529 51.8587C32.6405 51.6361 32.7566 51.4181 32.8634 51.2049L33.7507 45.1355L34.6054 42.5153L33.8621 46.5806L33.5974 47.4192L33.7042 47.4524L33.105 50.7264C33.3605 50.2194 33.6113 49.7172 33.8529 49.2291L34.7122 44.6806L36.1383 40.189L35.7248 42.3685L34.4567 47.9783C34.7401 47.386 35.0095 46.7985 35.2696 46.2252L37.6526 37.7584L37.4249 37.692L35.683 43.8799L35.9617 42.4158L38.4562 31.3857C38.3911 31.3573 38.3168 31.3289 38.2332 31.3004L37.2113 35.8252L38.0753 31.2578C38.0056 31.2388 37.9266 31.2246 37.843 31.2104L36.5145 38.2369L35.0885 42.7286L35.8549 38.6823L36.3752 37.0856L36.1708 37.0145L37.2856 31.1299L37.0487 31.1014L35.6273 38.6159L35.4786 39.0661L36.9326 31.0872L36.6957 31.0588L34.9259 40.7528L33.9597 43.7235L34.4428 40.4306L34.5821 39.6583L35.5623 36.5881L35.3346 36.5123L34.9119 37.8389L36.1615 30.9972L35.9246 30.9735L35.4229 33.7358L35.827 30.964L35.5901 30.9403L34.2988 39.7578L33.6067 41.9278L34.2198 37.7489L34.8562 35.74L34.6286 35.6642L34.4335 36.2754L35.2185 30.9072L34.9816 30.8882L33.9876 37.6968L33.026 40.7386L34.3824 30.8361C34.3034 30.8314 34.2245 30.8219 34.1455 30.8171L33.6438 34.4891L33.5184 34.4512L33.1329 35.7826L33.8157 30.7935L33.5788 30.7792L32.6776 37.3462L31.7207 40.6343L32.9889 30.7413L32.752 30.7271L32.4268 33.2525L32.3153 33.2193L31.9762 34.4939L32.4593 30.7082C32.3804 30.7034 32.3014 30.6987 32.2224 30.6987L31.5117 36.2375L31.1959 37.4362L31.953 31.4568L31.7161 31.4236L30.736 39.1608L30.1925 41.2076L31.1262 33.8211L31.2702 32.9729L31.233 32.9682L31.5257 30.6703L31.3491 30.6655C31.3259 30.6655 31.3073 30.6655 31.2841 30.6655L30.8893 33.7832L30.2854 37.3462L30.945 32.0585L30.7081 32.0301L29.3843 42.6196L28.6828 46.7322L28.864 46.7654L28.4785 49.8451L28.497 51.6076L29.2774 45.3203L29.3285 45.3345L29.4911 44.7138L28.785 50.3047L29.0219 50.3331L29.9603 42.9939ZM30.1832 39.3361L29.6165 42.6575L29.4539 43.9699L29.7233 42.9465L30.1832 39.3361ZM31.7347 36.3038L32.2967 34.1764L31.2795 42.1174L30.7592 43.9131L31.7347 36.3038ZM31.2748 38.0474L30.9636 39.2271L30.0671 46.3152L30.3365 45.3913L31.2748 38.0474ZM31.9995 43.9604L32.896 37.4077L33.5277 35.233L32.5894 42.0937L31.9995 43.9604ZM32.2921 50.8353L32.7194 47.9214L32.817 47.9546L32.2921 50.8353ZM32.8309 47.1681L33.3883 43.3729L34.0154 41.4161L33.1329 46.2442L32.8309 47.1681ZM34.113 46.5521L33.8389 47.9878L34.0898 46.6232L34.113 46.5521ZM35.265 40.4543L34.4799 44.6096L34.4242 44.7801L35.1488 40.8144L35.265 40.4543ZM38.8231 34.1101L37.1695 41.4161C36.9697 42.0131 36.7514 42.6148 36.5192 43.2166L38.9718 32.3807C38.9671 32.6318 38.9393 32.9303 38.9067 33.2857C38.8835 33.5652 38.8556 33.84 38.8231 34.1101Z" fill="#C75C52"/>
<path fill-rule="evenodd" clip-rule="evenodd" d="M30.6849 30.078L29.7373 21.8954L30.448 28.8177L30.5734 29.5L30.5177 29.5094L30.5734 30.059C30.4805 30.0401 30.4015 30.0164 30.3272 29.9927L30.2111 28.8509L29.4214 24.5392L29.9556 29.7463C29.7977 29.5663 29.7094 29.3104 29.6351 28.9361L28.8779 21.578L28.8129 21.2368C28.8733 21.1373 28.9523 21.0663 29.0544 21.0189L29.1102 21.5448L29.8999 25.8564L29.3935 20.9431C29.5236 20.9289 29.6815 20.9336 29.858 20.9383L30.722 28.3723L30.0439 20.9478C30.1182 20.9525 30.2018 20.9573 30.2854 20.9668C30.3969 20.9762 30.5084 20.9857 30.6198 20.9999L31.7068 30.1491C31.6278 30.1443 31.5442 30.1443 31.4653 30.1396L30.9682 25.9512L31.456 30.1396H31.4281C31.3538 30.1396 31.2841 30.1349 31.2144 30.1301L30.7778 26.3823L31.1169 30.1254C30.9589 30.1159 30.8149 30.1017 30.6849 30.078ZM32.3292 27.8037L32.3664 25.6811L32.896 30.2012L33.1375 30.2154L32.3989 23.8949L32.4222 22.6772L33.2676 30.0306L33.2583 30.2249C33.3465 30.2296 33.4394 30.2344 33.5277 30.2438L33.5045 30.0259L33.5788 28.1544L33.8203 30.2628L34.0619 30.2817L33.6392 26.6192L33.7739 23.2837L34.4474 29.6421L34.4056 30.3054C34.5217 30.3149 34.6425 30.3244 34.7586 30.3339L34.6843 29.6326L34.8097 27.6711L35.0977 30.3623L35.3393 30.386L34.9026 26.2686L35.0977 23.1557L35.5019 27.3252L35.3532 29.5237L35.5901 29.5426L35.6412 28.775L35.8038 30.4334L36.0453 30.457L35.7434 27.3252L35.8828 25.2736L36.1847 30.1728L36.1615 30.4665C36.3287 30.4855 36.4959 30.4997 36.6631 30.5186L36.5099 28.9314L36.7096 26.1786L36.9651 30.3054L36.9511 30.5518L37.2206 30.5802L37.202 30.3054L37.2066 30.2296L37.2252 30.585L37.3367 30.5992C37.3785 30.6039 37.4249 30.6087 37.4621 30.6134L37.332 28.2586L37.6386 23.549L37.7594 25.7664L37.8569 30.6418C38.0102 30.6466 38.1496 30.6466 38.2657 30.6323L38.2285 29.969L38.4469 23.1605C38.3865 23.0657 38.3122 22.9804 38.2193 22.9046L38.0799 27.2494L37.9963 25.7617L37.9359 22.7198C37.8058 22.6488 37.6479 22.5824 37.4667 22.5208L37.2206 26.2876L37.0069 22.3787C36.9186 22.355 36.835 22.3313 36.7468 22.3029L36.7235 22.644L36.7003 22.2887C36.6213 22.265 36.5377 22.2413 36.4588 22.2223L36.5935 24.4161L36.3659 27.5384L36.0453 24.2218L35.9989 23.44L36.0871 22.1181C35.9199 22.0755 35.7573 22.0281 35.5901 21.9854L35.7481 23.6106L35.5948 25.8848L35.2046 21.8859C35.1163 21.8622 35.0281 21.8433 34.9398 21.8196L34.7447 24.8756L34.4056 21.6917C34.322 21.6727 34.243 21.6538 34.1594 21.6348L34.6518 26.2828L34.5264 28.2444L33.8296 21.6633L33.8343 21.559C33.746 21.5401 33.6624 21.5211 33.5741 21.5022L33.5927 21.668L33.4534 25.0983L33.026 21.3884C32.9424 21.3742 32.8634 21.3553 32.7798 21.3411L33.3883 26.6335L33.314 28.505L32.4825 21.2842C32.385 21.2653 32.2874 21.251 32.1945 21.2321L32.1806 22.1323L32.0738 21.2131C31.9948 21.1989 31.9112 21.1847 31.8322 21.1752L32.1527 23.9233L32.1156 26.0459L31.5396 21.1326C31.4234 21.1136 31.3073 21.0994 31.1912 21.0805L31.2795 22.2792L31.1447 21.0615C31.0658 21.052 30.9822 21.0426 30.9032 21.0284L31.6836 27.5811L31.874 30.1538C32.0134 30.1585 32.1527 30.1633 32.2921 30.1728L32.2967 29.59L32.3664 30.1775C32.4454 30.1822 32.529 30.187 32.608 30.187L32.3292 27.8037ZM31.6696 24.1981L31.9158 27.5574L32.0738 28.8745L32.0923 27.818L31.6696 24.1981ZM36.8675 24.0133L37.0998 28.2396L37.0858 28.4197L36.835 24.3924L36.8675 24.0133ZM39.0089 27.6663L39.0507 29.6942C39.0368 30.0164 38.981 30.2486 38.8278 30.4049L38.6977 23.9043C38.7302 24.1176 38.7488 24.3639 38.7767 24.6482C38.7999 24.8851 38.8185 25.122 38.8417 25.3637C38.9114 26.1549 38.9718 26.9225 39.0089 27.6663Z" fill="#C75C52"/>
<path fill-rule="evenodd" clip-rule="evenodd" d="M26.0165 10.9979L26.0351 4.4405L26.1048 10.9932L26.1559 10.9885C26.2349 10.9837 26.3045 10.9742 26.3742 10.9695L26.6436 7.03694L26.6854 10.9269C26.7737 10.9126 26.8527 10.8937 26.9223 10.87L26.8527 4.03303L27.1174 0.17627C27.0385 0.204698 26.9549 0.252078 26.8712 0.304197L26.8201 1.01964L26.8155 0.342101C26.7365 0.394219 26.6576 0.455813 26.5786 0.517407L26.6158 4.02355L26.3138 8.39675L26.2349 0.806428C26.1884 0.844332 26.142 0.882236 26.1002 0.92014C26.0026 1.00069 25.9051 1.08123 25.8075 1.16178L25.5706 1.3513C25.408 1.47923 25.2362 1.61189 25.0643 1.74456L25.0132 11.1306C25.0922 11.1164 25.1711 11.1069 25.2501 11.0974L25.264 8.62418L25.2594 11.0974C25.3384 11.088 25.4173 11.0737 25.4963 11.0643L25.5009 9.02691L25.5474 11.0548C25.7007 11.0264 25.8586 11.0121 26.0165 10.9979ZM24.1213 10.6094V11.2822C24.2282 11.2585 24.335 11.2396 24.4419 11.2206L24.3582 10.5952L24.3722 6.95165L24.5022 10.3204L24.4976 11.2111C24.5905 11.1922 24.6788 11.178 24.7717 11.1638L24.7391 10.3204L24.7809 1.94829C24.702 2.00515 24.623 2.06674 24.544 2.1236L24.5301 4.99485L24.4233 2.21362C24.335 2.27996 24.2421 2.34155 24.1492 2.40788L24.126 8.82791L23.8519 6.72423L23.8659 2.60214C23.7869 2.65426 23.7079 2.71112 23.629 2.76323L23.6197 4.9522L23.4571 3.72032V2.86747C23.3502 2.93854 23.2434 3.00961 23.1319 3.07594L23.2202 3.73453L23.2063 11.4101L22.9183 9.55757L22.9275 3.19913C22.8486 3.24651 22.7696 3.29389 22.6906 3.34601L22.6814 8.0414L22.1565 4.65371L22.1472 3.6682C22.031 3.73453 21.9103 3.80086 21.7895 3.86719L21.9149 4.6774L21.9614 11.2964L21.6176 9.36331L21.5805 3.98091C21.5015 4.02355 21.4225 4.06145 21.3436 4.1041L21.3714 7.97033L20.8094 4.82428L20.8001 4.36943C20.7025 4.41681 20.6096 4.45945 20.5121 4.50683L20.5725 4.84797L20.6421 9.07429L20.2334 6.8332L20.1962 4.65371C20.0894 4.70109 19.9779 4.74847 19.8664 4.79585L19.8711 4.84323L19.8618 4.79585C19.7874 4.82901 19.7131 4.85744 19.6388 4.89061L19.964 6.68632L20.0058 7.47284L20.0615 10.8037L19.4855 7.72869L19.3462 5.0138C19.2672 5.04223 19.1929 5.07539 19.1139 5.10382L19.1604 5.9851L19.0721 5.51603L19.0489 5.12751C18.9606 5.16068 18.8677 5.19384 18.7748 5.22701L18.8352 5.54446L19.0721 9.65707L18.3057 5.3881C18.1709 5.43548 18.0362 5.47813 17.8969 5.52077L18.2453 9.22591L18.3335 10.7136L17.5903 5.61553C17.5067 5.63922 17.4324 5.66291 17.3627 5.69134L18.4357 13.0258C18.5518 12.9974 18.6866 12.9642 18.8352 12.9168L18.4868 9.21169L18.3568 6.9943L19.1929 11.6376L19.2579 12.7652C19.4205 12.7084 19.5784 12.6468 19.741 12.5899L19.5831 9.50545L20.0894 12.2156L20.094 12.462C20.2287 12.4146 20.3634 12.3672 20.4981 12.3198L20.3031 8.50573L20.67 10.5289L20.6979 12.2535C20.7769 12.2251 20.8558 12.2014 20.9348 12.173L20.9301 11.9598L20.9673 12.1635C21.0416 12.1398 21.1206 12.1114 21.1949 12.0877L20.9069 10.5052L20.8372 6.31676L21.3854 9.38226L21.4039 12.0166C21.4829 11.9929 21.5619 11.9645 21.6408 11.9408L21.6316 10.7705L21.8313 11.8839C21.9567 11.846 22.0821 11.8081 22.2076 11.7702L22.1704 6.28833L22.6814 9.586L22.6767 11.6376C22.7557 11.6139 22.8346 11.5949 22.9136 11.5712V11.1022L22.9833 11.5523C23.1366 11.5144 23.2852 11.4717 23.4385 11.4386L23.4478 5.53024L23.6057 6.73844L23.5918 11.4007C23.6708 11.3817 23.7497 11.3628 23.8287 11.3485L23.838 8.51046L24.1213 10.6094ZM19.1882 7.37808L19.2579 7.75712L19.4623 11.7844L19.4298 11.6044L19.1882 7.37808ZM16.9679 5.85243C17.0375 5.81926 17.1119 5.7861 17.1955 5.75293L17.8783 13.0542C17.7715 13.0305 17.6925 12.9832 17.6275 12.9168L16.9679 5.85243Z" fill="#C75C52"/>
<path fill-rule="evenodd" clip-rule="evenodd" d="M26.0351 19.7254L26.0073 20.3935C26.0909 20.3887 26.1698 20.384 26.2442 20.3745L26.5925 11.5144C26.5182 11.5144 26.4393 11.5191 26.3556 11.5239L26.1048 17.9155L26.1977 11.5381C25.998 11.5523 25.7982 11.576 25.6031 11.5997L25.2315 20.4645C25.2919 20.4598 25.3523 20.4503 25.4127 20.4456L25.4684 20.4409L25.6728 15.5228L25.4824 20.4314C25.566 20.4219 25.6449 20.4172 25.7193 20.4124L25.8958 15.9302L25.84 19.7207L26.0351 19.7254ZM26.5972 11.5144C26.6808 11.5144 26.7598 11.5144 26.8341 11.5239L26.7319 15.338L27.1267 11.5807C27.2429 11.6186 27.3358 11.6802 27.4054 11.7655L27.1871 20.0997C27.1221 20.1708 27.0431 20.2229 26.9456 20.2608L27.1081 13.9924L26.6483 18.3514L26.5972 20.3414C26.5229 20.3508 26.4439 20.3603 26.3603 20.365L26.3974 19.0289L26.3417 19.0242L26.416 18.3324L26.5972 11.5144ZM24.4651 17.4701L24.2653 15.3569L24.0563 20.6162C23.9773 20.6304 23.8984 20.6398 23.8148 20.6541L24.0981 13.5754L23.9866 12.3625L23.7033 19.7633L23.8101 20.6588C23.6847 20.6778 23.5593 20.7014 23.4292 20.7251L23.4664 19.7728L23.2481 17.9107L23.1366 20.7773C23.0576 20.7915 22.9786 20.8057 22.8997 20.8246L23.0715 16.3898L22.6814 13.0732L22.4909 19.4696L22.686 20.8436L22.4537 20.8767V20.9147C22.3748 20.9289 22.2958 20.9478 22.2168 20.9668L22.2586 19.4838L21.9846 17.5364L21.8824 21.0426C21.8034 21.0615 21.7245 21.0805 21.6455 21.0947L21.7895 16.1387L21.3482 13.0543L21.2646 17.2427L21.5805 19.4222L21.3436 19.4553L21.2321 18.6925L21.181 21.1989C20.9812 21.2463 20.7815 21.2984 20.5818 21.3458L20.5771 20.9431L20.5678 21.3506C20.4889 21.3695 20.4099 21.3932 20.3309 21.4121L20.382 18.9199L19.9733 16.1908L20.0336 20.3224L20.1591 21.1942L20.0476 21.2084L20.0522 21.4832L19.7967 20.3414L19.7874 20.2655L19.8153 21.5495L19.5784 21.6159L19.5087 18.3087L18.8445 13.637L18.8909 15.8592L19.2254 21.7154C19.0628 21.758 18.9142 21.7959 18.7841 21.8291L18.7469 20.0808L18.078 13.9498C18.1431 13.8929 18.2174 13.836 18.301 13.7839L18.6912 17.3517L18.6587 15.8592L18.5333 13.6513C18.6819 13.5754 18.8584 13.4996 19.0582 13.4238L19.4716 16.3235L19.4066 13.2959C19.5831 13.2296 19.7596 13.168 19.9361 13.1064L19.9547 14.4141L20.4192 17.508L20.4889 14.1772L20.4796 13.3907L20.4145 12.9358C20.5307 12.8932 20.6422 12.8553 20.7583 12.8174L20.7443 13.5423L21.0695 15.7976L21.1345 12.6847C21.2692 12.6421 21.3993 12.5947 21.534 12.552L21.8406 14.722L21.9103 12.4336C21.9892 12.4099 22.0682 12.3862 22.1518 12.3578L22.0403 16.115L22.3144 18.0624L22.4863 12.2583C22.6024 12.2251 22.7185 12.1919 22.8346 12.1588L23.1505 14.8405L23.2573 12.0451C23.3363 12.0261 23.4153 12.0024 23.4989 11.9835L23.3317 16.3661L23.55 18.2282L23.7915 11.9124C24.0052 11.8603 24.2189 11.8176 24.4372 11.775L24.3675 13.5612L24.5673 15.6744L24.7252 11.7229C24.8553 11.6992 24.9807 11.6755 25.1107 11.6565V11.8555L25.12 11.6518C25.199 11.6376 25.278 11.6281 25.3616 11.6139L25.1293 17.1811L25.1386 20.4551C25.0178 20.4693 24.8924 20.4835 24.7717 20.5024L24.7531 20.5072L24.7809 19.8676L24.7298 19.8723L24.6695 19.2327L24.6184 20.5261C24.5394 20.5356 24.4604 20.5498 24.3815 20.5593L24.4651 17.4701ZM24.846 13.8266L24.702 17.4654L24.7995 18.5172L24.8553 17.1953L24.846 13.8266ZM20.9487 21.09L21.0277 17.2569L20.7351 15.2195L20.8047 20.1281L20.9487 21.09ZM19.6527 14.054L19.741 18.285L19.7689 18.4651L19.7085 14.433L19.6527 14.054ZM17.6275 14.8547L18.0316 21.9428C18.1013 21.9428 18.1802 21.9381 18.2685 21.9286L17.8272 14.2388C17.7204 14.4093 17.66 14.6131 17.6275 14.8547Z" fill="#C75C52"/>
<path fill-rule="evenodd" clip-rule="evenodd" d="M26.0723 32.3712L25.9887 31.8169L25.775 31.85L25.6496 30.8598C25.5799 30.8171 25.4963 30.784 25.3987 30.7556L27.5169 47.7888C27.5216 47.1018 27.5169 46.4384 27.5076 45.7893L26.8945 40.8618L27.5076 45.6661C27.4937 44.7422 27.4612 43.8467 27.4008 42.9607L27.1825 41.2361L27.3636 42.4395C27.2196 40.5301 26.9502 38.6302 26.4718 36.5123C26.2209 35.4036 26.0676 34.2238 26.063 32.845C26.063 32.6792 26.0676 32.5228 26.0723 32.3712ZM25.8679 32.6081L25.9654 33.262H25.9469L25.8679 32.6081ZM26.0258 42.9939L25.4824 40.9471L27.2614 54.9953L27.0245 55.0285L25.984 46.8033L25.84 46.8459L26.7876 54.242L26.5507 54.2751L25.4173 45.4387L24.8971 43.643L26.4021 55.3933C26.3231 55.3791 26.2395 55.3554 26.1559 55.3222L24.4697 42.1695L23.5407 38.9666L24.4093 45.3013L24.8274 46.6232L24.5998 46.699L25.7564 55.1375C25.6682 55.0853 25.5799 55.0332 25.4916 54.9716L24.1724 45.3582L23.5825 43.4866L25.1154 54.6637C25.0132 54.5689 24.9203 54.4694 24.8367 54.3652L23.1598 42.1458L22.2215 39.1798L22.83 43.3255L23.4989 45.4245L23.2713 45.5003L23.0344 44.7659L24.1539 52.4226L23.9773 52.451L24.0935 53.0906C23.968 52.849 23.8426 52.6121 23.7219 52.3752L22.7603 47.097L23.4571 51.8587C23.3456 51.6361 23.2295 51.4181 23.1226 51.2049L22.2354 45.1355L21.3807 42.5153L22.1239 46.5806L22.3887 47.4192L22.2819 47.4524L22.8811 50.7264C22.6256 50.2194 22.3748 49.7172 22.1332 49.2291L21.2739 44.6806L19.8478 40.189L20.2612 42.3685L21.5294 47.9783C21.246 47.386 20.9766 46.7985 20.7165 46.2252L18.3335 37.7584L18.5611 37.692L20.3031 43.8799L20.0243 42.4158L17.5299 31.3857C17.595 31.3573 17.6693 31.3289 17.7529 31.3004L18.7748 35.8252L17.9108 31.2578C17.9851 31.2388 18.0595 31.2246 18.1431 31.2104L19.4716 38.2369L20.8976 42.7286L20.1312 38.6823L19.6109 37.0856L19.8153 37.0145L18.7005 31.1299L18.9374 31.1014L20.3588 38.6159L20.5074 39.0661L19.0535 31.0872L19.2904 31.0588L21.0602 40.7528L22.0264 43.7235L21.5433 40.4306L21.4039 39.6583L20.4238 36.5881L20.6514 36.5123L21.0741 37.8389L19.8246 30.9972L20.0615 30.9735L20.5632 33.7358L20.1591 30.964L20.396 30.9403L21.6873 39.7578L22.3794 41.9278L21.7663 37.7489L21.1299 35.74L21.3575 35.6642L21.5526 36.2754L20.7676 30.9072L21.0045 30.8882L21.9985 37.6968L22.9601 40.7386L21.6037 30.8361C21.6827 30.8314 21.7616 30.8219 21.8406 30.8171L22.3423 34.4891L22.4677 34.4512L22.8532 35.7826L22.1704 30.7935L22.4073 30.7792L23.3084 37.3462L24.2653 40.6343L22.9972 30.7413L23.2341 30.7271L23.5593 33.2525L23.6708 33.2193L24.0099 34.4939L23.5268 30.7082C23.6057 30.7034 23.6847 30.6987 23.7637 30.6987L24.4744 36.2375L24.7902 37.4362L24.0331 31.4568L24.27 31.4236L25.2501 39.1608L25.7936 41.2076L24.8599 33.8211L24.7159 32.9729L24.7531 32.9682L24.4604 30.6703L24.6369 30.6655C24.6602 30.6655 24.6788 30.6655 24.702 30.6655L25.0968 33.7832L25.7007 37.3462L25.0411 32.0585L25.278 32.0301L26.5925 42.6006L27.294 46.7132L27.1128 46.7464L27.4983 49.8261L27.4798 51.5887L26.6994 45.3013L26.6483 45.3155L26.4857 44.6948L27.1918 50.2857L26.9549 50.3141L26.0258 42.9939ZM25.8029 39.3361L26.3649 42.6575L26.5275 43.9699L26.2581 42.9465L25.8029 39.3361ZM24.2514 36.3038L23.6893 34.1764L24.7066 42.1174L25.2269 43.9131L24.2514 36.3038ZM24.7113 38.0474L25.0225 39.2271L25.919 46.3152L25.6496 45.3913L24.7113 38.0474ZM23.9866 43.9604L23.0901 37.4077L22.4584 35.233L23.3967 42.0937L23.9866 43.9604ZM23.694 50.8353L23.2666 47.9214L23.1691 47.9546L23.694 50.8353ZM23.1552 47.1681L22.5977 43.3729L21.9707 41.4161L22.8532 46.2442L23.1552 47.1681ZM21.8731 46.5521L22.1472 47.9878L21.8963 46.6232L21.8731 46.5521ZM20.7211 40.4543L21.5061 44.6096L21.5619 44.7801L20.8372 40.8144L20.7211 40.4543ZM17.163 34.1101L18.8166 41.4161C19.0164 42.0131 19.2347 42.6148 19.4669 43.2166L17.0143 32.3807C17.019 32.6318 17.0468 32.9303 17.0793 33.2857C17.1026 33.5652 17.1304 33.84 17.163 34.1101Z" fill="#C75C52"/>
<path fill-rule="evenodd" clip-rule="evenodd" d="M25.3012 30.078L26.2488 21.8954L25.5381 28.8177L25.4127 29.5L25.4684 29.5094L25.4127 30.059C25.5056 30.0401 25.5845 30.0164 25.6589 29.9927L25.775 28.8508L26.5647 24.5392L26.0305 29.7463C26.1884 29.5663 26.2767 29.3104 26.351 28.9361L27.1081 21.578L27.1732 21.2368C27.1128 21.1373 27.0338 21.0663 26.9316 21.0189L26.8759 21.5448L26.0862 25.8564L26.5925 20.9431C26.4625 20.9289 26.3045 20.9336 26.128 20.9383L25.264 28.3723L25.9422 20.9478C25.8679 20.9525 25.7843 20.9573 25.7007 20.9668C25.5892 20.9762 25.4777 20.9857 25.3662 20.9999L24.2746 30.1491C24.3536 30.1443 24.4325 30.1443 24.5162 30.1396L25.0132 25.9512L24.5254 30.1396H24.5533C24.6276 30.1396 24.6973 30.1349 24.767 30.1301L25.2036 26.3823L24.8645 30.1254C25.0271 30.1159 25.1711 30.1017 25.3012 30.078ZM23.6568 27.8037L23.6197 25.6811L23.0901 30.2012L22.8486 30.2154L23.5871 23.8949L23.5639 22.6772L22.7185 30.0306L22.7278 30.2249C22.6395 30.2296 22.5466 30.2344 22.4584 30.2438L22.4816 30.0259L22.4073 28.1544L22.1657 30.2628L21.9242 30.2817L22.3469 26.6192L22.2122 23.2837L21.534 29.6374L21.5758 30.3007C21.4597 30.3102 21.3389 30.3196 21.2228 30.3291L21.2971 29.6279L21.1717 27.6663L20.8883 30.3575L20.6468 30.3812L21.0834 26.2639L20.8883 23.151L20.4842 27.3205L20.6328 29.5189L20.3959 29.5379L20.3448 28.7703L20.1823 30.4286L19.9407 30.4523L20.2427 27.3205L20.1033 25.2689L19.8014 30.168L19.8246 30.4618C19.6574 30.4807 19.4901 30.4949 19.3229 30.5139L19.4762 28.9267L19.2765 26.1739L19.021 30.3007L19.0349 30.5471L18.7655 30.5755L18.7841 30.3007L18.7794 30.2249L18.7609 30.5802L18.6494 30.5944C18.6076 30.5992 18.5658 30.6039 18.524 30.6087L18.654 28.2539L18.3474 23.5442L18.2267 25.7616L18.1291 30.6371C17.9712 30.6418 17.8365 30.6418 17.7204 30.6276L17.7575 29.9643L17.5392 23.1557C17.5996 23.061 17.6739 22.9757 17.7668 22.8999L17.9062 27.2447L17.9898 25.7569L18.0502 22.7151C18.1802 22.644 18.3382 22.5777 18.5193 22.5161L18.7655 26.2828L18.9792 22.374C19.0674 22.3503 19.1511 22.3266 19.2393 22.2981L19.2579 22.6251L19.2811 22.2697C19.3601 22.246 19.4437 22.2223 19.5227 22.2034L19.388 24.3971L19.6156 27.5195L19.9361 24.2028L19.9825 23.4211L19.8943 22.0992C20.0615 22.0565 20.2241 22.0091 20.3913 21.9665L20.2334 23.5916L20.3867 25.8659L20.7768 21.867C20.8651 21.8433 20.9534 21.8243 21.0416 21.8007L21.2367 24.8567L21.5758 21.6727C21.6594 21.6538 21.7384 21.6348 21.822 21.6159L21.3296 26.2639L21.455 28.2254L22.1518 21.6443L22.1472 21.5401C22.2354 21.5211 22.319 21.5022 22.4073 21.4832L22.3887 21.649L22.528 25.0794L22.9554 21.3695C23.039 21.3553 23.118 21.3363 23.2016 21.3221L22.5931 26.6145L22.6674 28.486L23.4989 21.2653C23.5964 21.2463 23.694 21.2321 23.7869 21.2131L23.8008 22.1134L23.903 21.2037C23.982 21.1894 24.0656 21.1752 24.1445 21.1658L23.824 23.9138L23.8612 26.0365L24.4372 21.1231C24.5533 21.1042 24.6694 21.0899 24.7856 21.071L24.6973 22.2697L24.8413 21.0615C24.9203 21.052 25.0039 21.0426 25.0829 21.0284L24.3025 27.5811L24.112 30.1538C23.9727 30.1585 23.8333 30.1633 23.694 30.1728L23.6893 29.59L23.6197 30.1775C23.5407 30.1822 23.4617 30.187 23.3781 30.187L23.6568 27.8037ZM24.3164 24.1981L24.0702 27.5574L23.9123 28.8745L23.8937 27.818L24.3164 24.1981ZM19.1185 24.0133L18.8863 28.2396L18.9002 28.4197L19.1511 24.3924L19.1185 24.0133ZM16.9771 27.6663L16.9353 29.6942C16.9493 30.0164 17.005 30.2486 17.1583 30.4049L17.2884 23.9043C17.2558 24.1176 17.2373 24.3639 17.2094 24.6482C17.1908 24.8851 17.1676 25.122 17.1444 25.3637C17.0747 26.1549 17.0143 26.9225 16.9771 27.6663Z" fill="#C75C52"/>
<path fill-rule="evenodd" clip-rule="evenodd" d="M39.218 4.57788C39.9565 4.79109 40.7044 5.08959 41.0481 5.80977C41.3686 6.48257 41.1596 7.19327 40.997 7.87081C40.6951 9.11218 40.4675 10.3678 40.3096 11.6328C39.9472 14.4804 39.9194 16.911 40.0727 20.0286C40.1609 21.8575 40.2399 22.7388 40.4071 24.5439C40.4303 24.7808 40.4536 25.0177 40.4768 25.2546C40.5836 26.3586 40.6765 27.4673 40.6951 28.5807C40.7137 29.8458 40.6719 32.1201 40.5558 33.3851C40.4025 35.0292 40.1238 36.6544 39.7243 38.2605C38.3168 43.932 35.3579 49.3286 32.5197 54.4409C32.2503 54.9242 31.8555 55.3317 31.3817 55.6539C31.6139 55.4264 31.8136 55.1706 31.9669 54.891C34.2245 50.8258 36.5563 46.5805 38.1403 42.1647C38.6141 40.8807 39.0229 39.5777 39.348 38.2605C39.7475 36.6544 40.0216 35.0292 40.1795 33.3851C40.3003 32.1248 40.3421 29.8458 40.3188 28.5807C40.3003 27.472 40.2074 26.3633 40.1005 25.2546C40.0773 25.0177 40.0541 24.7808 40.0309 24.5439C39.8636 22.7388 39.7847 21.8622 39.6964 20.0286C39.5431 16.9062 39.571 14.4804 39.9333 11.6328C40.0912 10.3678 40.3189 9.11218 40.6208 7.87081C40.7834 7.18854 40.9924 6.48257 40.6719 5.80977C40.6022 5.66289 40.5139 5.53496 40.4164 5.41651C40.1238 5.02326 39.6871 4.78162 39.218 4.61105V4.57788Z" fill="#CFA284"/>
<path fill-rule="evenodd" clip-rule="evenodd" d="M16.731 4.57788C15.9878 4.79109 15.2352 5.08959 14.8915 5.80977C14.571 6.48257 14.78 7.19327 14.9426 7.87081C15.2445 9.11218 15.4721 10.3678 15.6347 11.6328C15.997 14.4804 16.0296 16.911 15.8716 20.0286C15.7787 21.8575 15.7044 22.7388 15.5325 24.5439C15.5093 24.7808 15.4861 25.0177 15.4629 25.2546C15.356 26.3586 15.2631 27.4673 15.2445 28.5807C15.226 29.8458 15.2678 32.1201 15.3885 33.3851C15.5465 35.0292 15.8205 36.6544 16.2247 38.2605C17.6368 43.932 20.6143 49.3286 23.4664 54.4409C23.7358 54.9242 24.1353 55.3317 24.6137 55.6539C24.3815 55.4264 24.1817 55.1706 24.0238 54.891C21.757 50.8258 19.4112 46.5805 17.8179 42.1647C17.3441 40.8807 16.9307 39.5777 16.6056 38.2605C16.2061 36.6544 15.9274 35.0292 15.7694 33.3851C15.6487 32.1248 15.6069 29.8458 15.6301 28.5807C15.6487 27.472 15.7416 26.3633 15.8484 25.2546C15.8716 25.0177 15.8948 24.7808 15.9181 24.5439C16.0853 22.7388 16.1643 21.8622 16.2572 20.0286C16.4151 16.9062 16.3826 14.4804 16.0203 11.6328C15.8577 10.3678 15.6301 9.11218 15.3281 7.87081C15.1609 7.18854 14.9565 6.48257 15.277 5.80977C15.3467 5.66289 15.435 5.53496 15.5325 5.41651C15.8252 5.02326 16.2665 4.78162 16.7356 4.61105V4.57788H16.731Z" fill="#CFA284"/>
</g>
</svg>
